"kappa" "spec_sens" "no_omission" "prevalence" "equal_sens_spec" "sensitivity" "AUC" "TSS" "algoritmo" "partition"
"Myrsine parvula 3 BioClim" 0.23674211 0.07884737 -1e-04 -1e-04 0.07884737 0.04063684 0.89367489380517 0.712792331864765 "BioClim" 3
"Myrsine parvula 3 maxent" 0.60029729 0.22931639 0.14195278 0.0113473 0.28552974 0.24807524 0.957861575631247 0.841070949200183 "maxent" 3
"Myrsine parvula 3 glm" 0.14084766 0.00900333 0.00900333 0.01125759 0.01561959 0.0109768 0.923356052000505 0.74220623501199 "glm" 3
"Myrsine parvula 3 rf" 0.16083333 0.0179495 0.0019 0.01124067 0.0079 0.0049 0.938935693550423 0.737788716395305 "rf" 3
"Myrsine parvula 3 svm" 0.0107021 0.00987893 -0.00030547 0.01110694 0.00987893 0.00909177 0.809005427237158 0.502366527830367 "svm" 3
"Myrsine parvula 3 mindist" 0.8814198 0.48248385 5.253e-05 0.01192416 0.49215907 0.48580478 0.940349298087704 0.792939820297819 "mindist" 3
