"kappa" "spec_sens" "no_omission" "prevalence" "equal_sens_spec" "sensitivity" "AUC" "TSS" "algoritmo" "partition"
"Myrsine leuconeura 1 BioClim" 0.23519412 0.11754706 -1e-04 -1e-04 0.11754706 0.11754706 0.703195319531953 0.421579657965796 "BioClim" 1
"Myrsine leuconeura 1 maxent" 0.78076549 0.2062596 0.2062596 0.00240465 0.3004769 0.206402 0.84552205220522 0.616261626162616 "maxent" 1
"Myrsine leuconeura 1 glm" 0.03405224 0.00109046 0.00109046 0.00249253 0.0013921 0.00109456 0.8094921875 0.603125 "glm" 1
"Myrsine leuconeura 1 rf" 9e-04 9e-04 -1e-04 0.00256667 3e-04 3e-04 0.8461328125 0.579375 "rf" 1
"Myrsine leuconeura 1 svm" 0.00495728 0.00474695 0.00422093 0.00238598 0.00477628 0.00422173 0.8041796875 0.589375 "svm" 1
"Myrsine leuconeura 1 mindist" 0.73795977 2.411e-05 2.411e-05 0.0025118 0.15823611 0.00081509 0.874399939993999 0.663066306630663 "mindist" 1
