"kappa" "spec_sens" "no_omission" "prevalence" "equal_sens_spec" "sensitivity" "AUC" "TSS" "algoritmo" "partition"
"Myrsine coriacea 3 BioClim" 0.24912118 0.04351371 -1e-04 0.00924579 0.0528595 0.01859159 0.82821891285993 0.523239875389408 "BioClim" 3
"Myrsine coriacea 3 maxent" 0.68399689 0.18668614 0.01055111 0.0099109 0.19941727 0.14860483 0.934640191768325 0.749190031152648 "maxent" 3
"Myrsine coriacea 3 glm" 0.04917363 0.01248431 6.343e-05 0.00989795 0.01140332 0.00474215 0.859958269038538 0.590404984423676 "glm" 3
"Myrsine coriacea 3 rf" 0.16526667 0.0148 -1e-04 0.0099 0.0123 0.0105 0.948592938733126 0.785233644859813 "rf" 3
"Myrsine coriacea 3 svm" 0.00993807 0.00983274 0.0020602 0.00989976 0.00983953 0.00960783 0.819298822798692 0.52018691588785 "svm" 3
"Myrsine coriacea 3 centroid" 0.86881368 0.68074271 -8.269e-05 -8.269e-05 0.68605224 0.56296115 0.734093710270669 0.360529595015576 "centroid" 3
"Myrsine coriacea 3 mindist" 0.94051357 0.82627621 -6.735e-05 0.0051237 0.80022415 0.7237898 0.876784774992479 0.60595015576324 "mindist" 3
