"kappa" "spec_sens" "no_omission" "prevalence" "equal_sens_spec" "sensitivity" "AUC" "TSS" "algoritmo" "partition"
"Myrsine rubra 2 BioClim" -1e-04 -1e-04 -1e-04 -1e-04 0.0024 0.0024 0.49250149970006 0 "BioClim" 2
"Myrsine rubra 2 maxent" 0.30618651 0.30618651 0.30618651 0.00365104 0.30662763 0.30662763 0.819936012797441 0.766346730653869 "maxent" 2
"Myrsine rubra 2 glm" 0.00472684 0.00169299 0.00169299 0.00070522 0.00169299 0.00176116 0.961571373006612 0.945157526254376 "glm" 2
"Myrsine rubra 2 rf" 0.0099 0.0099 -1e-04 7e-04 0.0004472 0.0004472 0.855387008945935 0.316297160637884 "rf" 2
"Myrsine rubra 2 svm" 0.00261228 0.00261228 0.00261228 0.00201647 0.00261228 0.00271228 0.993076623881758 0.987631271878646 "svm" 2
"Myrsine rubra 2 mindist" 0.69331629 0.00015905 0.00015905 0.00015905 0.00015905 0.01105379 0.994501099780044 0.988602279544091 "mindist" 2
