"kappa" "spec_sens" "no_omission" "prevalence" "equal_sens_spec" "sensitivity" "AUC" "TSS" "algoritmo" "partition"
"Myrsine balansae 1 BioClim" 0.36832105 0.10516316 -1e-04 -1e-04 0.10516316 0.05253158 0.776191135734072 0.407368421052632 "BioClim" 1
"Myrsine balansae 1 maxent" 0.69873812 0.38362096 0.04284325 0.00990595 0.52203927 0.09152241 0.717617728531856 0.447894736842105 "maxent" 1
"Myrsine balansae 1 glm" 0.00922106 0.00922106 0.00261577 0.00989484 0.00947611 0.003264 0.626648199445983 0.301578947368421 "glm" 1
"Myrsine balansae 1 rf" 0.15746667 0.0293352 -4.96e-05 0.0099 0.0019 3e-04 0.668711911357341 0.344736842105263 "rf" 1
"Myrsine balansae 1 svm" 0.01011758 0.00920555 0.00853275 0.00989365 0.00949908 0.00885935 0.654653739612188 0.328947368421053 "svm" 1
"Myrsine balansae 1 mindist" 0.91099165 0.50998355 1.414e-05 0.01022705 0.5105066 0.15396197 0.752160664819945 0.446315789473684 "mindist" 1
