"kappa" "spec_sens" "no_omission" "prevalence" "equal_sens_spec" "sensitivity" "AUC" "TSS" "algoritmo" "partition"
"Myrsine coriacea 2 BioClim" 0.19616168 0.0528595 -1e-04 0.08835171 0.05936106 0.02482212 0.816769356409092 0.50483454710927 "BioClim" 2
"Myrsine coriacea 2 maxent" 0.45786323 0.25265379 0.00440643 0.08762931 0.26104538 0.1577771 0.906196330827292 0.69281470808642 "maxent" 2
"Myrsine coriacea 2 glm" 0.13588721 0.08110417 0.00803503 0.08795919 0.08611436 0.054875 0.859241484475129 0.610229856024249 "glm" 2
"Myrsine coriacea 2 rf" 0.3019 0.1117764 -1e-04 0.08766667 0.12006667 0.086404 0.927767954870759 0.755718335157587 "rf" 2
"Myrsine coriacea 2 svm" 0.07977708 0.03153767 -0.0392885 0.0876281 0.02182299 0.00847761 0.856937311142919 0.654643428475204 "svm" 2
"Myrsine coriacea 2 mindist" 0.81608964 0.72102209 -4.806e-05 0.0874855 0.70207038 0.57083686 0.844744135285093 0.54292038788504 "mindist" 2
