"kappa" "spec_sens" "no_omission" "prevalence" "equal_sens_spec" "sensitivity" "AUC" "TSS" "algoritmo" "partition"
"Myrsine parvula 1 BioClim" 0.23674211 0.02621579 -1e-04 -1e-04 0.02621579 0.02621579 0.846116190566425 0.616782730904669 "BioClim" 1
"Myrsine parvula 1 maxent" 0.67485054 0.20609016 0.07930522 0.01126703 0.22860372 0.21840385 0.944265479179497 0.8162553097415 "maxent" 1
"Myrsine parvula 1 glm" 0.10498295 0.01474187 0.00349606 0.01130537 0.01501943 0.00744554 0.900025258106273 0.720550626716762 "glm" 1
"Myrsine parvula 1 rf" 0.24086667 0.0072 -1e-04 0.01123333 0.00800167 0.0035 0.936917879581978 0.735468695734537 "rf" 1
"Myrsine parvula 1 svm" 0.01066952 0.01052563 0.0038454 0.01136011 0.01000304 0.00920721 0.811329839295299 0.551873835759164 "svm" 1
"Myrsine parvula 1 mindist" 0.80848016 0.37308804 -8.10000000000001e-06 0.01203795 0.41325078 0.24691825 0.936701564893331 0.720419410362089 "mindist" 1
