"kappa" "spec_sens" "no_omission" "prevalence" "equal_sens_spec" "sensitivity" "AUC" "TSS" "algoritmo" "partition"
"Myrsine rubra 3 BioClim" 0.3999 0.3999 -1e-04 -1e-04 0.3999 0.3999 0.738197424892704 0.482832618025751 "BioClim" 3
"Myrsine rubra 3 maxent" 0.68050923 0.43830867 0.43830867 0.01344805 0.43830867 0.45115565 0.886266094420601 0.841201716738198 "maxent" 3
"Myrsine rubra 3 glm" 0.3207058 0.06605843 0.06605843 0.00989021 0.06605843 0.06954817 0.9775 0.96 "glm" 3
"Myrsine rubra 3 rf" 0.12483333 0.12483333 0.12483333 0.0099 0.12483333 0.1741 0.9975 0.995 "rf" 3
"Myrsine rubra 3 svm" 0.01425414 0.01031057 0.0103118 0.00993 0.01031057 0.0105825 0.985 0.97 "svm" 3
"Myrsine rubra 3 centroid" 2.54999999999999e-06 2.54999999999999e-06 2.54999999999999e-06 0.0033576 2.54999999999999e-06 0.0033576 0.976394849785408 0.974248927038627 "centroid" 3
"Myrsine rubra 3 mindist" 0.69331629 0.00015905 0.00015905 0.00015905 0.00015905 0.12468016 0.989270386266094 0.982832618025751 "mindist" 3
