"kappa" "spec_sens" "no_omission" "prevalence" "equal_sens_spec" "sensitivity" "AUC" "TSS" "algoritmo" "partition"
"Myrsine villosissima 3 BioClim" 0.08416667 0.08416667 -1e-04 -1e-04 0.08416667 0.08416667 0.642462751971954 0.265118317265556 "BioClim" 3
"Myrsine villosissima 3 maxent" 0.85736437 0.58481027 0.0999414 0.00541163 0.16042677 0.10022318 0.730411919368975 0.45977212971078 "maxent" 3
"Myrsine villosissima 3 glm" 0.02445893 0.00402573 0.00151734 0.00448205 0.00402573 0.00153415 0.807257694074414 0.651355075792375 "glm" 3
"Myrsine villosissima 3 rf" 0.33713333 0.0054 -1e-04 0.00450507 3e-04 3e-04 0.643867707854846 0.328249885163068 "rf" 3
"Myrsine villosissima 3 svm" 0.00698487 0.0055079 0.00550996 0.0044839 0.00600644 0.00551309 0.638217730822232 0.322186495176849 "svm" 3
"Myrsine villosissima 3 mindist" 0.76964785 0.66793507 6.36999999999999e-06 0.00423541 0.31101194 0.00036197 0.616564417177914 0.331638913234005 "mindist" 3
