"kappa" "spec_sens" "no_omission" "prevalence" "equal_sens_spec" "sensitivity" "AUC" "TSS" "algoritmo" "partition"
"Myrsine rubra 3 BioClim" 0.2463 0.2463 -1e-04 -1e-04 0.2463 0.2463 0.722459270752521 0.45655546935609 "BioClim" 3
"Myrsine rubra 3 maxent" 0.69274265 0.43669178 0.43669178 0.07854451 0.43962964 0.43962964 0.712567882079131 0.583397982932506 "maxent" 3
"Myrsine rubra 3 glm" 0.00387974 0.00128125 0.00128125 0.00180617 0.00128249 0.00128249 0.742753623188406 0.596014492753623 "glm" 3
"Myrsine rubra 3 rf" 0.04511073 0.04511073 -1e-04 0.00176517 0.0001852 0.0001852 0.884510869565217 0.490942028985507 "rf" 3
"Myrsine rubra 3 svm" 0.00416368 0.00393488 0.0039371 0.00328251 0.00393488 0.00393855 0.868659420289855 0.771739130434783 "svm" 3
"Myrsine rubra 3 mindist" 0.69250376 0.00015905 0.00015905 0.00015905 0.00015905 0.00479312 0.960434445306439 0.926299456943367 "mindist" 3
