"kappa" "spec_sens" "no_omission" "prevalence" "equal_sens_spec" "sensitivity" "AUC" "TSS" "algoritmo" "partition"
"Myrsine venosa 1 BioClim" 0.1977022 0.10979011 -1e-04 0.01844945 0.08781209 0.01844945 0.658827107835597 0.297152726306515 "BioClim" 1
"Myrsine venosa 1 maxent" 0.70408495 0.25700934 0.00196725 0.01452606 0.35232799 0.13916446 0.75361153453508 0.382347182793293 "maxent" 1
"Myrsine venosa 1 glm" 0.0478451 0.01999962 0.00222923 0.01448142 0.0151111 0.00387026 0.686767727247487 0.330515297906602 "glm" 1
"Myrsine venosa 1 rf" 0.2327 0.01726667 -1e-04 0.0144 0.0081833 3e-04 0.773227969348659 0.488380809595202 "rf" 1
"Myrsine venosa 1 svm" 0.01220318 0.01189076 0.00991741 0.01268909 0.01179658 0.01101348 0.627533455494475 0.287703370536954 "svm" 1
"Myrsine venosa 1 mindist" 0.97500478 0.81956719 -5.924e-05 0.01107675 0.81977853 0.64714802 0.712391793810396 0.377865104115681 "mindist" 1
