"kappa" "spec_sens" "no_omission" "prevalence" "equal_sens_spec" "sensitivity" "AUC" "TSS" "algoritmo" "partition"
"Myrsine guianensis 3 BioClim" 0.24232424 0.09907355 -1e-04 0.04948678 0.0660157 0.01083113 0.731932309253025 0.366013396919803 "BioClim" 3
"Myrsine guianensis 3 maxent" 0.53221633 0.33400977 0.00931977 0.05153135 0.30375997 0.10018438 0.846885241010289 0.601512084910149 "maxent" 3
"Myrsine guianensis 3 glm" 0.12337374 0.05146941 0.01044263 0.05160457 0.04715757 0.03139047 0.831223951490316 0.534236847269667 "glm" 3
"Myrsine guianensis 3 rf" 0.25996667 0.05516453 -5.2e-06 0.05166667 0.0527 0.02412373 0.874456577778813 0.621801417637648 "rf" 3
"Myrsine guianensis 3 svm" 0.02524163 0.02120271 -0.00735727 0.05087079 0.02040864 0.01373866 0.761912047924268 0.456764047485207 "svm" 3
"Myrsine guianensis 3 mindist" 0.85483297 0.7473658 -3.829e-05 0.05002237 0.62615303 0.38259128 0.739666784357994 0.373698143294992 "mindist" 3
