"kappa" "spec_sens" "no_omission" "prevalence" "equal_sens_spec" "sensitivity" "AUC" "TSS" "algoritmo" "partition"
"Myrsine hermogenesii 2 BioClim" 0.30759231 0.07682308 -1e-04 -1e-04 0.07682308 0.12966923 0.914774188019539 0.805296083640415 "BioClim" 2
"Myrsine hermogenesii 2 maxent" 0.64951708 0.56349261 0.1094739 0.0042057 0.35908021 0.15524894 0.913660125117834 0.712228982774874 "maxent" 2
"Myrsine hermogenesii 2 glm" 0.07423473 0.00555195 0.0015137 0.00398823 0.00462895 0.00198445 0.900142857142857 0.749428571428571 "glm" 2
"Myrsine hermogenesii 2 rf" 0.10206667 9e-04 -1e-04 0.0039 3e-04 3e-04 0.877244897959184 0.585142857142857 "rf" 2
"Myrsine hermogenesii 2 svm" 0.00637244 0.0058414 0.0058415 0.00398322 0.00594639 0.00594639 0.940408163265306 0.821714285714286 "svm" 2
"Myrsine hermogenesii 2 mindist" 0.88008067 3.134e-05 3.134e-05 0.00417445 0.16177452 0.15777152 0.90609735195818 0.77624475104979 "mindist" 2
