"kappa" "spec_sens" "no_omission" "prevalence" "equal_sens_spec" "sensitivity" "AUC" "TSS" "algoritmo" "partition"
"Myrsine coriacea 3 BioClim" 0.15254798 0.04351371 -1e-04 0.08712741 0.0528595 0.01744517 0.828713245156291 0.52962585978224 "BioClim" 3
"Myrsine coriacea 3 maxent" 0.50223978 0.18310815 0.01386125 0.08776762 0.20630636 0.18375826 0.937121749558133 0.751496644991602 "maxent" 3
"Myrsine coriacea 3 glm" 0.16853547 0.09528335 0.00085456 0.08797988 0.0957447 0.04736695 0.869553085441779 0.611782948349528 "glm" 3
"Myrsine coriacea 3 rf" 0.22693333 0.11673333 0.00399573 0.08796307 0.1303952 0.139782 0.95485675119175 0.812491397206093 "rf" 3
"Myrsine coriacea 3 svm" 0.17251756 0.0292315 -0.09843146 0.08699608 0.03129276 0.02982892 0.921857136035102 0.78650463918829 "svm" 3
"Myrsine coriacea 3 mindist" 0.86144119 0.82625513 -6.735e-05 0.09076192 0.80171017 0.72385174 0.872877941999808 0.602378929481733 "mindist" 3
