"kappa" "spec_sens" "no_omission" "prevalence" "equal_sens_spec" "sensitivity" "AUC" "TSS" "algoritmo" "partition"
"Myrsine umbellata 1 BioClim" 0.14644726 0.04965124 -1e-04 0.05486517 0.05486517 0.0198005 0.804658824091364 0.502339786217428 "BioClim" 1
"Myrsine umbellata 1 maxent" 0.5734718 0.25911062 0.00205891 0.05669846 0.25911062 0.15379739 0.908526673562879 0.659828669434108 "maxent" 1
"Myrsine umbellata 1 glm" 0.14941894 0.07695765 0.0020085 0.056865 0.06423976 0.04036214 0.866535389021907 0.562582887660647 "glm" 1
"Myrsine umbellata 1 rf" 0.2714 0.05376667 -1e-04 0.05686347 0.05976667 0.03376667 0.918917406968158 0.697755599812034 "rf" 1
"Myrsine umbellata 1 svm" 0.03160701 0.02219969 -0.02702694 0.05776123 0.02024781 0.0121764 0.822506657119202 0.549180633563815 "svm" 1
"Myrsine umbellata 1 mindist" 0.86506995 0.76229581 -4.025e-05 0.05703847 0.74543824 0.67617759 0.884884010789139 0.619727644406232 "mindist" 1
