"kappa" "spec_sens" "no_omission" "prevalence" "equal_sens_spec" "sensitivity" "AUC" "TSS" "algoritmo" "partition"
"Myrsine umbellata 3 BioClim" 0.16304428 0.04965124 -1e-04 0.05462637 0.04965124 0.0198005 0.79529744019178 0.432938816269687 "BioClim" 3
"Myrsine umbellata 3 maxent" 0.58571018 0.27388333 0.01722191 0.05691697 0.27676392 0.13916962 0.904468058746173 0.660603373770213 "maxent" 3
"Myrsine umbellata 3 glm" 0.21160352 0.03664519 0.00919476 0.05682524 0.06152479 0.04269427 0.85920084545768 0.580137118189431 "glm" 3
"Myrsine umbellata 3 rf" 0.277212 0.06243333 -1e-04 0.0566808 0.0719504 0.04630693 0.926659830162121 0.745507386559551 "rf" 3
"Myrsine umbellata 3 svm" 0.02908947 0.02339424 -0.0269701 0.05661332 0.02137186 0.01566885 0.838771936895182 0.621684556515353 "svm" 3
"Myrsine umbellata 3 mindist" 0.78007011 0.65682812 -1.825e-05 0.05660671 0.67250012 0.54777528 0.884981035416974 0.662202041099632 "mindist" 3
