"kappa" "spec_sens" "no_omission" "prevalence" "equal_sens_spec" "sensitivity" "AUC" "TSS" "algoritmo" "partition"
"Myrsine parvula 3 BioClim" 0.26305789 0.07884737 -1e-04 -1e-04 0.07884737 0.05253158 0.888434903047091 0.698157894736842 "BioClim" 3
"Myrsine parvula 3 maxent" 0.62545206 0.28958686 0.1456983 0.00997026 0.31161742 0.29257443 0.952361495844875 0.823684210526316 "maxent" 3
"Myrsine parvula 3 glm" 0.12010343 0.00751186 0.00751186 0.00988211 0.01375241 0.01049012 0.918407202216067 0.723157894736842 "glm" 3
"Myrsine parvula 3 rf" 0.2159 0.00789693 -1e-04 0.0099 0.01010867 0.0079 0.923947368421053 0.766052631578947 "rf" 3
"Myrsine parvula 3 svm" 0.01007664 0.0098681 0.00880258 0.00988742 0.00959805 0.00934113 0.870941828254848 0.597368421052632 "svm" 3
"Myrsine parvula 3 centroid" 0.58640085 0.23261327 -5.005e-05 0.00944906 0.29917123 0.09407686 0.879515235457064 0.588684210526316 "centroid" 3
"Myrsine parvula 3 mindist" 0.8814198 0.48296919 -1.058e-05 0.01036984 0.49531577 0.48394259 0.927340720221607 0.77078947368421 "mindist" 3
