"","x","y","sp"
"1",0.167245448105617,2611.18245002649,"bal"
"2",1.1983006955585,7843.22100942096,"cor"
"3",0.615530338302523,4385.1906102143,"gar"
"4",0.961350110740136,6789.10021858473,"gui"
"5",0.256902426144998,1068.56665855883,"her"
"6",0.184856640220495,1428.51034323462,"lan"
"7",0.125618994015904,644.347315905229,"leu"
"8",0.288922775444777,451.520341971772,"parvi"
"9",0.370574666159213,3870.98534639174,"parvu"
"10",0.0087447190717107,721.478105478612,"rub"
"11",0.780435137196385,10067.1587754535,"umb"
"12",0.40579705038897,1711.32323833702,"ven"
"13",0.104805766971048,3960.97126756069,"vil"
