"","species","partition","algoritmo","AUC","TSS","experimento","buffer","PA.n"
"1","Myrsine balansae",1,"BioClim",0.901814404432133,0.744210526315789,"eigenmodsbuf_100x_max","max","100x"
"2","Myrsine balansae",1,"maxent",0.889390581717452,0.746842105263158,"eigenmodsbuf_100x_max","max","100x"
"3","Myrsine balansae",1,"glm",0.84409972299169,0.622631578947368,"eigenmodsbuf_100x_max","max","100x"
"4","Myrsine balansae",1,"rf",0.873573407202216,0.716842105263158,"eigenmodsbuf_100x_max","max","100x"
"5","Myrsine balansae",1,"svm",0.864930747922438,0.679473684210526,"eigenmodsbuf_100x_max","max","100x"
"6","Myrsine balansae",1,"mindist",0.91792243767313,0.684736842105263,"eigenmodsbuf_100x_max","max","100x"
"7","Myrsine balansae",2,"BioClim",0.838891966759003,0.606315789473684,"eigenmodsbuf_100x_max","max","100x"
"8","Myrsine balansae",2,"maxent",0.924016620498615,0.82,"eigenmodsbuf_100x_max","max","100x"
"9","Myrsine balansae",2,"glm",0.889529085872576,0.728421052631579,"eigenmodsbuf_100x_max","max","100x"
"10","Myrsine balansae",2,"rf",0.901759002770083,0.67,"eigenmodsbuf_100x_max","max","100x"
"11","Myrsine balansae",2,"svm",0.927506925207756,0.722105263157895,"eigenmodsbuf_100x_max","max","100x"
"12","Myrsine balansae",2,"mindist",0.904653739612188,0.71,"eigenmodsbuf_100x_max","max","100x"
"13","Myrsine balansae",3,"BioClim",0.75707756232687,0.491052631578947,"eigenmodsbuf_100x_max","max","100x"
"14","Myrsine balansae",3,"maxent",0.927756232686981,0.737368421052631,"eigenmodsbuf_100x_max","max","100x"
"15","Myrsine balansae",3,"glm",0.910637119113573,0.704736842105263,"eigenmodsbuf_100x_max","max","100x"
"16","Myrsine balansae",3,"rf",0.943047091412742,0.740526315789474,"eigenmodsbuf_100x_max","max","100x"
"17","Myrsine balansae",3,"svm",0.914875346260388,0.78578947368421,"eigenmodsbuf_100x_max","max","100x"
"18","Myrsine balansae",3,"mindist",0.891301939058172,0.688947368421053,"eigenmodsbuf_100x_max","max","100x"
"19","Myrsine coriacea",1,"BioClim",0.810533389787577,0.49372881213355,"eigenmodsbuf_100x_max","max","100x"
"20","Myrsine coriacea",1,"maxent",0.937680216619793,0.788145169657153,"eigenmodsbuf_100x_max","max","100x"
"21","Myrsine coriacea",1,"glm",0.88592707317005,0.638783975070427,"eigenmodsbuf_100x_max","max","100x"
"22","Myrsine coriacea",1,"rf",0.946114212708379,0.802589313420986,"eigenmodsbuf_100x_max","max","100x"
"23","Myrsine coriacea",1,"svm",0.901941379345692,0.763616353695777,"eigenmodsbuf_100x_max","max","100x"
"24","Myrsine coriacea",1,"mindist",0.884015504354174,0.625195229803354,"eigenmodsbuf_100x_max","max","100x"
"25","Myrsine coriacea",2,"BioClim",0.852675259340655,0.560023509316828,"eigenmodsbuf_100x_max","max","100x"
"26","Myrsine coriacea",2,"maxent",0.930106502064073,0.752986785820406,"eigenmodsbuf_100x_max","max","100x"
"27","Myrsine coriacea",2,"glm",0.873749450384964,0.636616990822598,"eigenmodsbuf_100x_max","max","100x"
"28","Myrsine coriacea",2,"rf",0.948370332949772,0.804400662344588,"eigenmodsbuf_100x_max","max","100x"
"29","Myrsine coriacea",2,"svm",0.89300796123226,0.748741264629115,"eigenmodsbuf_100x_max","max","100x"
"30","Myrsine coriacea",2,"mindist",0.883614865811884,0.611967326160936,"eigenmodsbuf_100x_max","max","100x"
"31","Myrsine coriacea",3,"BioClim",0.828713245156291,0.52962585978224,"eigenmodsbuf_100x_max","max","100x"
"32","Myrsine coriacea",3,"maxent",0.937121749558133,0.751496644991602,"eigenmodsbuf_100x_max","max","100x"
"33","Myrsine coriacea",3,"glm",0.869553085441779,0.611782948349528,"eigenmodsbuf_100x_max","max","100x"
"34","Myrsine coriacea",3,"rf",0.95485675119175,0.812491397206093,"eigenmodsbuf_100x_max","max","100x"
"35","Myrsine coriacea",3,"svm",0.921857136035102,0.78650463918829,"eigenmodsbuf_100x_max","max","100x"
"36","Myrsine coriacea",3,"mindist",0.872877941999808,0.602378929481733,"eigenmodsbuf_100x_max","max","100x"
"37","Myrsine gardneriana",1,"BioClim",0.898877256146667,0.674265321268969,"eigenmodsbuf_100x_max","max","100x"
"38","Myrsine gardneriana",1,"maxent",0.943616466909849,0.788099862617841,"eigenmodsbuf_100x_max","max","100x"
"39","Myrsine gardneriana",1,"glm",0.913328489290453,0.685230934479055,"eigenmodsbuf_100x_max","max","100x"
"40","Myrsine gardneriana",1,"rf",0.963333228028053,0.821163202122954,"eigenmodsbuf_100x_max","max","100x"
"41","Myrsine gardneriana",1,"svm",0.850900360144058,0.685843811208694,"eigenmodsbuf_100x_max","max","100x"
"42","Myrsine gardneriana",1,"mindist",0.952080471205015,0.773300487943531,"eigenmodsbuf_100x_max","max","100x"
"43","Myrsine gardneriana",2,"BioClim",0.942518864648123,0.782773971521485,"eigenmodsbuf_100x_max","max","100x"
"44","Myrsine gardneriana",2,"maxent",0.9756038266031,0.862185457645313,"eigenmodsbuf_100x_max","max","100x"
"45","Myrsine gardneriana",2,"glm",0.953041777104632,0.785128739113972,"eigenmodsbuf_100x_max","max","100x"
"46","Myrsine gardneriana",2,"rf",0.973315032184778,0.864669317177837,"eigenmodsbuf_100x_max","max","100x"
"47","Myrsine gardneriana",2,"svm",0.92725293449451,0.818159156885018,"eigenmodsbuf_100x_max","max","100x"
"48","Myrsine gardneriana",2,"mindist",0.960275313358381,0.818937265178543,"eigenmodsbuf_100x_max","max","100x"
"49","Myrsine gardneriana",3,"BioClim",0.90404093040883,0.722368026276312,"eigenmodsbuf_100x_max","max","100x"
"50","Myrsine gardneriana",3,"maxent",0.966058711134271,0.840282975665988,"eigenmodsbuf_100x_max","max","100x"
"51","Myrsine gardneriana",3,"glm",0.936232387691919,0.75093511088646,"eigenmodsbuf_100x_max","max","100x"
"52","Myrsine gardneriana",3,"rf",0.959404814557402,0.811903708851962,"eigenmodsbuf_100x_max","max","100x"
"53","Myrsine gardneriana",3,"svm",0.857332406646869,0.73843116193846,"eigenmodsbuf_100x_max","max","100x"
"54","Myrsine gardneriana",3,"mindist",0.953868018380785,0.791027523805012,"eigenmodsbuf_100x_max","max","100x"
"55","Myrsine guianensis",1,"BioClim",0.770670989750909,0.438582532286378,"eigenmodsbuf_100x_max","max","100x"
"56","Myrsine guianensis",1,"maxent",0.902591364108787,0.664407324710372,"eigenmodsbuf_100x_max","max","100x"
"57","Myrsine guianensis",1,"glm",0.837055645983211,0.525442130272353,"eigenmodsbuf_100x_max","max","100x"
"58","Myrsine guianensis",1,"rf",0.914231631870955,0.699605794537652,"eigenmodsbuf_100x_max","max","100x"
"59","Myrsine guianensis",1,"svm",0.860340536325593,0.615228201901031,"eigenmodsbuf_100x_max","max","100x"
"60","Myrsine guianensis",1,"mindist",0.816237424847457,0.477491948089837,"eigenmodsbuf_100x_max","max","100x"
"61","Myrsine guianensis",2,"BioClim",0.802121169172759,0.451963453463154,"eigenmodsbuf_100x_max","max","100x"
"62","Myrsine guianensis",2,"maxent",0.901181302201098,0.690676150484189,"eigenmodsbuf_100x_max","max","100x"
"63","Myrsine guianensis",2,"glm",0.838803819131688,0.553287695910647,"eigenmodsbuf_100x_max","max","100x"
"64","Myrsine guianensis",2,"rf",0.922327672327672,0.71866166620265,"eigenmodsbuf_100x_max","max","100x"
"65","Myrsine guianensis",2,"svm",0.851949689654608,0.587333977497912,"eigenmodsbuf_100x_max","max","100x"
"66","Myrsine guianensis",2,"mindist",0.860427365076435,0.550643717410364,"eigenmodsbuf_100x_max","max","100x"
"67","Myrsine guianensis",3,"BioClim",0.77288474703824,0.417477659368147,"eigenmodsbuf_100x_max","max","100x"
"68","Myrsine guianensis",3,"maxent",0.882031849593799,0.649114082678986,"eigenmodsbuf_100x_max","max","100x"
"69","Myrsine guianensis",3,"glm",0.823971115050841,0.485522600044571,"eigenmodsbuf_100x_max","max","100x"
"70","Myrsine guianensis",3,"rf",0.908736665990334,0.702159718734304,"eigenmodsbuf_100x_max","max","100x"
"71","Myrsine guianensis",3,"svm",0.852012865843315,0.567790155035408,"eigenmodsbuf_100x_max","max","100x"
"72","Myrsine guianensis",3,"mindist",0.811145202918082,0.45108101970418,"eigenmodsbuf_100x_max","max","100x"
"73","Myrsine hermogenesii",1,"BioClim",0.690461076807663,0.379017831380922,"eigenmodsbuf_100x_max","max","100x"
"74","Myrsine hermogenesii",1,"maxent",0.935310750764614,0.824456114028507,"eigenmodsbuf_100x_max","max","100x"
"75","Myrsine hermogenesii",1,"glm",0.904023668639053,0.690769230769231,"eigenmodsbuf_100x_max","max","100x"
"76","Myrsine hermogenesii",1,"rf",0.797307692307692,0.660769230769231,"eigenmodsbuf_100x_max","max","100x"
"77","Myrsine hermogenesii",1,"svm",0.866686390532544,0.667692307692308,"eigenmodsbuf_100x_max","max","100x"
"78","Myrsine hermogenesii",1,"mindist",0.879219804951238,0.713024409948641,"eigenmodsbuf_100x_max","max","100x"
"79","Myrsine hermogenesii",2,"BioClim",0.91499785821375,0.812379524523453,"eigenmodsbuf_100x_max","max","100x"
"80","Myrsine hermogenesii",2,"maxent",0.913793103448276,0.71696294709788,"eigenmodsbuf_100x_max","max","100x"
"81","Myrsine hermogenesii",2,"glm",0.895969387755102,0.715714285714286,"eigenmodsbuf_100x_max","max","100x"
"82","Myrsine hermogenesii",2,"rf",0.931198979591837,0.839285714285714,"eigenmodsbuf_100x_max","max","100x"
"83","Myrsine hermogenesii",2,"svm",0.931479591836735,0.765714285714286,"eigenmodsbuf_100x_max","max","100x"
"84","Myrsine hermogenesii",2,"mindist",0.914060826729492,0.789355322338831,"eigenmodsbuf_100x_max","max","100x"
"85","Myrsine hermogenesii",3,"BioClim",0.794823705926482,0.601534999134399,"eigenmodsbuf_100x_max","max","100x"
"86","Myrsine hermogenesii",3,"maxent",0.850539557966415,0.620693634947199,"eigenmodsbuf_100x_max","max","100x"
"87","Myrsine hermogenesii",3,"glm",0.80284023668639,0.586923076923077,"eigenmodsbuf_100x_max","max","100x"
"88","Myrsine hermogenesii",3,"rf",0.884289940828402,0.608461538461539,"eigenmodsbuf_100x_max","max","100x"
"89","Myrsine hermogenesii",3,"svm",0.702721893491124,0.466923076923077,"eigenmodsbuf_100x_max","max","100x"
"90","Myrsine hermogenesii",3,"mindist",0.867447631138554,0.645103583588205,"eigenmodsbuf_100x_max","max","100x"
"91","Myrsine lancifolia",1,"BioClim",0.68202479338843,0.361818181818182,"eigenmodsbuf_100x_max","max","100x"
"92","Myrsine lancifolia",1,"maxent",0.943223140495868,0.793636363636363,"eigenmodsbuf_100x_max","max","100x"
"93","Myrsine lancifolia",1,"glm",0.895537190082645,0.684545454545455,"eigenmodsbuf_100x_max","max","100x"
"94","Myrsine lancifolia",1,"rf",0.923801652892562,0.770909090909091,"eigenmodsbuf_100x_max","max","100x"
"95","Myrsine lancifolia",1,"svm",0.844462809917355,0.637272727272727,"eigenmodsbuf_100x_max","max","100x"
"96","Myrsine lancifolia",1,"mindist",0.850413223140496,0.634545454545455,"eigenmodsbuf_100x_max","max","100x"
"97","Myrsine lancifolia",2,"BioClim",0.632107438016529,0.265454545454546,"eigenmodsbuf_100x_max","max","100x"
"98","Myrsine lancifolia",2,"maxent",0.872809917355372,0.620909090909091,"eigenmodsbuf_100x_max","max","100x"
"99","Myrsine lancifolia",2,"glm",0.820661157024793,0.594545454545454,"eigenmodsbuf_100x_max","max","100x"
"100","Myrsine lancifolia",2,"rf",0.864256198347107,0.584545454545454,"eigenmodsbuf_100x_max","max","100x"
"101","Myrsine lancifolia",2,"svm",0.644297520661157,0.434545454545455,"eigenmodsbuf_100x_max","max","100x"
"102","Myrsine lancifolia",2,"mindist",0.831074380165289,0.624545454545455,"eigenmodsbuf_100x_max","max","100x"
"103","Myrsine lancifolia",3,"BioClim",0.69698347107438,0.417272727272727,"eigenmodsbuf_100x_max","max","100x"
"104","Myrsine lancifolia",3,"maxent",0.885785123966942,0.736363636363636,"eigenmodsbuf_100x_max","max","100x"
"105","Myrsine lancifolia",3,"glm",0.845371900826446,0.613636363636364,"eigenmodsbuf_100x_max","max","100x"
"106","Myrsine lancifolia",3,"rf",0.872851239669421,0.667272727272727,"eigenmodsbuf_100x_max","max","100x"
"107","Myrsine lancifolia",3,"svm",0.757190082644628,0.471818181818182,"eigenmodsbuf_100x_max","max","100x"
"108","Myrsine lancifolia",3,"mindist",0.698677685950413,0.42,"eigenmodsbuf_100x_max","max","100x"
"109","Myrsine leuconeura",1,"BioClim",0.699504801920768,0.423319327731092,"eigenmodsbuf_100x_max","max","100x"
"110","Myrsine leuconeura",1,"maxent",0.823379351740696,0.543667466986795,"eigenmodsbuf_100x_max","max","100x"
"111","Myrsine leuconeura",1,"glm",0.7925,0.5275,"eigenmodsbuf_100x_max","max","100x"
"112","Myrsine leuconeura",1,"rf",0.86859375,0.7875,"eigenmodsbuf_100x_max","max","100x"
"113","Myrsine leuconeura",1,"svm",0.7746875,0.5625,"eigenmodsbuf_100x_max","max","100x"
"114","Myrsine leuconeura",1,"mindist",0.875450180072029,0.666266506602641,"eigenmodsbuf_100x_max","max","100x"
"115","Myrsine leuconeura",2,"BioClim",0.6207034372502,0.253796962430056,"eigenmodsbuf_100x_max","max","100x"
"116","Myrsine leuconeura",2,"maxent",0.93072208899547,0.810951239008793,"eigenmodsbuf_100x_max","max","100x"
"117","Myrsine leuconeura",2,"glm",0.904320987654321,0.781111111111111,"eigenmodsbuf_100x_max","max","100x"
"118","Myrsine leuconeura",2,"rf",0.789382716049383,0.633333333333333,"eigenmodsbuf_100x_max","max","100x"
"119","Myrsine leuconeura",2,"svm",0.791975308641975,0.533333333333333,"eigenmodsbuf_100x_max","max","100x"
"120","Myrsine leuconeura",2,"mindist",0.773780975219824,0.419264588329336,"eigenmodsbuf_100x_max","max","100x"
"121","Myrsine leuconeura",3,"BioClim",0.732668067226891,0.466686674669868,"eigenmodsbuf_100x_max","max","100x"
"122","Myrsine leuconeura",3,"maxent",0.81422569027611,0.715486194477791,"eigenmodsbuf_100x_max","max","100x"
"123","Myrsine leuconeura",3,"glm",0.82046875,0.615,"eigenmodsbuf_100x_max","max","100x"
"124","Myrsine leuconeura",3,"rf",0.829609375,0.6925,"eigenmodsbuf_100x_max","max","100x"
"125","Myrsine leuconeura",3,"svm",0.96671875,0.9125,"eigenmodsbuf_100x_max","max","100x"
"126","Myrsine leuconeura",3,"mindist",0.916266506602641,0.724789915966387,"eigenmodsbuf_100x_max","max","100x"
"127","Myrsine parvifolia",1,"BioClim",0.782057202833902,0.46400419837313,"eigenmodsbuf_100x_max","max","100x"
"128","Myrsine parvifolia",1,"maxent",0.838005772763054,0.621988979270533,"eigenmodsbuf_100x_max","max","100x"
"129","Myrsine parvifolia",1,"glm",0.869802494802495,0.670176715176715,"eigenmodsbuf_100x_max","max","100x"
"130","Myrsine parvifolia",1,"rf",0.891995841995842,0.704022869022869,"eigenmodsbuf_100x_max","max","100x"
"131","Myrsine parvifolia",1,"svm",0.772952182952183,0.484033264033264,"eigenmodsbuf_100x_max","max","100x"
"132","Myrsine parvifolia",1,"mindist",0.889204933088428,0.68087116242456,"eigenmodsbuf_100x_max","max","100x"
"133","Myrsine parvifolia",2,"BioClim",0.660973084886128,0.290933402346446,"eigenmodsbuf_100x_max","max","100x"
"134","Myrsine parvifolia",2,"maxent",0.883410973084886,0.687111801242236,"eigenmodsbuf_100x_max","max","100x"
"135","Myrsine parvifolia",2,"glm",0.929807776898038,0.725719187120612,"eigenmodsbuf_100x_max","max","100x"
"136","Myrsine parvifolia",2,"rf",0.926046890120524,0.764383742412246,"eigenmodsbuf_100x_max","max","100x"
"137","Myrsine parvifolia",2,"svm",0.838061933667634,0.621602005806281,"eigenmodsbuf_100x_max","max","100x"
"138","Myrsine parvifolia",2,"mindist",0.908147860593513,0.72627674258109,"eigenmodsbuf_100x_max","max","100x"
"139","Myrsine parvifolia",3,"BioClim",0.743920230910522,0.408417738126476,"eigenmodsbuf_100x_max","max","100x"
"140","Myrsine parvifolia",3,"maxent",0.898861191288376,0.705557596431383,"eigenmodsbuf_100x_max","max","100x"
"141","Myrsine parvifolia",3,"glm",0.903877338877339,0.675072765072765,"eigenmodsbuf_100x_max","max","100x"
"142","Myrsine parvifolia",3,"rf",0.896200623700624,0.717276507276507,"eigenmodsbuf_100x_max","max","100x"
"143","Myrsine parvifolia",3,"svm",0.841070686070686,0.576507276507277,"eigenmodsbuf_100x_max","max","100x"
"144","Myrsine parvifolia",3,"mindist",0.899868800839675,0.686685909210181,"eigenmodsbuf_100x_max","max","100x"
"145","Myrsine parvula",1,"BioClim",0.841410456835157,0.606881740805659,"eigenmodsbuf_100x_max","max","100x"
"146","Myrsine parvula",1,"maxent",0.940230865191782,0.808454529663493,"eigenmodsbuf_100x_max","max","100x"
"147","Myrsine parvula",1,"glm",0.904800618823604,0.714251886464812,"eigenmodsbuf_100x_max","max","100x"
"148","Myrsine parvula",1,"rf",0.944578189625233,0.758643008240457,"eigenmodsbuf_100x_max","max","100x"
"149","Myrsine parvula",1,"svm",0.824969216682979,0.638903798187731,"eigenmodsbuf_100x_max","max","100x"
"150","Myrsine parvula",1,"mindist",0.93025881535522,0.7053784325801,"eigenmodsbuf_100x_max","max","100x"
"151","Myrsine parvula",2,"BioClim",0.81535140340353,0.590471379408329,"eigenmodsbuf_100x_max","max","100x"
"152","Myrsine parvula",2,"maxent",0.941851103463518,0.778944211157768,"eigenmodsbuf_100x_max","max","100x"
"153","Myrsine parvula",2,"glm",0.924063537221432,0.768879405721511,"eigenmodsbuf_100x_max","max","100x"
"154","Myrsine parvula",2,"rf",0.937837837837838,0.736478583847005,"eigenmodsbuf_100x_max","max","100x"
"155","Myrsine parvula",2,"svm",0.813300142247511,0.562588904694168,"eigenmodsbuf_100x_max","max","100x"
"156","Myrsine parvula",2,"mindist",0.886291162820068,0.672860164809143,"eigenmodsbuf_100x_max","max","100x"
"157","Myrsine parvula",3,"BioClim",0.89367489380517,0.712792331864765,"eigenmodsbuf_100x_max","max","100x"
"158","Myrsine parvula",3,"maxent",0.957861575631247,0.841070949200183,"eigenmodsbuf_100x_max","max","100x"
"159","Myrsine parvula",3,"glm",0.923356052000505,0.74220623501199,"eigenmodsbuf_100x_max","max","100x"
"160","Myrsine parvula",3,"rf",0.938935693550423,0.737788716395305,"eigenmodsbuf_100x_max","max","100x"
"161","Myrsine parvula",3,"svm",0.809005427237158,0.502366527830367,"eigenmodsbuf_100x_max","max","100x"
"162","Myrsine parvula",3,"mindist",0.940349298087704,0.792939820297819,"eigenmodsbuf_100x_max","max","100x"
"163","Myrsine rubra",1,"maxent",0.989270386266094,0.987124463519313,"eigenmodsbuf_100x_max","max","100x"
"164","Myrsine rubra",1,"glm",0.9075,0.865,"eigenmodsbuf_100x_max","max","100x"
"165","Myrsine rubra",1,"rf",0.7625,0.725,"eigenmodsbuf_100x_max","max","100x"
"166","Myrsine rubra",2,"maxent",0.829059829059829,0.79059829059829,"eigenmodsbuf_100x_max","max","100x"
"167","Myrsine rubra",2,"glm",0.983333333333333,0.97,"eigenmodsbuf_100x_max","max","100x"
"168","Myrsine rubra",2,"rf",0.882222222222222,0.856666666666667,"eigenmodsbuf_100x_max","max","100x"
"169","Myrsine rubra",2,"svm",0.643333333333333,0.44,"eigenmodsbuf_100x_max","max","100x"
"170","Myrsine rubra",2,"mindist",0.994301994301994,0.991452991452991,"eigenmodsbuf_100x_max","max","100x"
"171","Myrsine rubra",3,"BioClim",0.737124463519313,0.482832618025751,"eigenmodsbuf_100x_max","max","100x"
"172","Myrsine rubra",3,"maxent",0.82618025751073,0.746781115879828,"eigenmodsbuf_100x_max","max","100x"
"173","Myrsine rubra",3,"glm",0.975,0.975,"eigenmodsbuf_100x_max","max","100x"
"174","Myrsine rubra",3,"rf",0.9775,0.97,"eigenmodsbuf_100x_max","max","100x"
"175","Myrsine rubra",3,"svm",0.9725,0.965,"eigenmodsbuf_100x_max","max","100x"
"176","Myrsine rubra",3,"mindist",0.991416309012876,0.982832618025751,"eigenmodsbuf_100x_max","max","100x"
"177","Myrsine umbellata",1,"BioClim",0.860444253380562,0.600149567195525,"eigenmodsbuf_100x_max","max","100x"
"178","Myrsine umbellata",1,"maxent",0.934514346957084,0.734477925404481,"eigenmodsbuf_100x_max","max","100x"
"179","Myrsine umbellata",1,"glm",0.864352898177777,0.58788068652241,"eigenmodsbuf_100x_max","max","100x"
"180","Myrsine umbellata",1,"rf",0.948609277450827,0.779681800890599,"eigenmodsbuf_100x_max","max","100x"
"181","Myrsine umbellata",1,"svm",0.841167475963511,0.619511139952412,"eigenmodsbuf_100x_max","max","100x"
"182","Myrsine umbellata",1,"mindist",0.931693169316932,0.734030119429853,"eigenmodsbuf_100x_max","max","100x"
"183","Myrsine umbellata",2,"BioClim",0.878759322762313,0.639021449441455,"eigenmodsbuf_100x_max","max","100x"
"184","Myrsine umbellata",2,"maxent",0.932811945073672,0.746328346271044,"eigenmodsbuf_100x_max","max","100x"
"185","Myrsine umbellata",2,"glm",0.866468975649962,0.601876571524132,"eigenmodsbuf_100x_max","max","100x"
"186","Myrsine umbellata",2,"rf",0.944493469029403,0.798883732597517,"eigenmodsbuf_100x_max","max","100x"
"187","Myrsine umbellata",2,"svm",0.89112062735542,0.709285206619962,"eigenmodsbuf_100x_max","max","100x"
"188","Myrsine umbellata",2,"mindist",0.921585832087314,0.722795739359591,"eigenmodsbuf_100x_max","max","100x"
"189","Myrsine umbellata",3,"BioClim",0.860207662557301,0.536144659242044,"eigenmodsbuf_100x_max","max","100x"
"190","Myrsine umbellata",3,"maxent",0.940944840752732,0.734079378087062,"eigenmodsbuf_100x_max","max","100x"
"191","Myrsine umbellata",3,"glm",0.871573724536633,0.594144489075773,"eigenmodsbuf_100x_max","max","100x"
"192","Myrsine umbellata",3,"rf",0.955037294774254,0.784762058295382,"eigenmodsbuf_100x_max","max","100x"
"193","Myrsine umbellata",3,"svm",0.904424770835292,0.724312729780441,"eigenmodsbuf_100x_max","max","100x"
"194","Myrsine umbellata",3,"mindist",0.928730186451481,0.743859460572923,"eigenmodsbuf_100x_max","max","100x"
"195","Myrsine venosa",1,"BioClim",0.765581992981907,0.464276862468856,"eigenmodsbuf_100x_max","max","100x"
"196","Myrsine venosa",1,"maxent",0.894369871769786,0.65670697504533,"eigenmodsbuf_100x_max","max","100x"
"197","Myrsine venosa",1,"glm",0.865129320951678,0.589572729274326,"eigenmodsbuf_100x_max","max","100x"
"198","Myrsine venosa",1,"rf",0.908889277434562,0.689668570540467,"eigenmodsbuf_100x_max","max","100x"
"199","Myrsine venosa",1,"svm",0.825795547266581,0.516921164082838,"eigenmodsbuf_100x_max","max","100x"
"200","Myrsine venosa",1,"mindist",0.866010514094888,0.624492884071016,"eigenmodsbuf_100x_max","max","100x"
"201","Myrsine venosa",2,"BioClim",0.763983869892688,0.480317269879357,"eigenmodsbuf_100x_max","max","100x"
"202","Myrsine venosa",2,"maxent",0.903159368126375,0.677104579084183,"eigenmodsbuf_100x_max","max","100x"
"203","Myrsine venosa",2,"glm",0.880723828851683,0.673972602739726,"eigenmodsbuf_100x_max","max","100x"
"204","Myrsine venosa",2,"rf",0.929649923896499,0.735464231354642,"eigenmodsbuf_100x_max","max","100x"
"205","Myrsine venosa",2,"svm",0.863920175883646,0.667275494672755,"eigenmodsbuf_100x_max","max","100x"
"206","Myrsine venosa",2,"mindist",0.915136972605479,0.793887889088849,"eigenmodsbuf_100x_max","max","100x"
"207","Myrsine venosa",3,"BioClim",0.761681602942903,0.38866930171278,"eigenmodsbuf_100x_max","max","100x"
"208","Myrsine venosa",3,"maxent",0.912508642168565,0.722035247002961,"eigenmodsbuf_100x_max","max","100x"
"209","Myrsine venosa",3,"glm",0.872491389802419,0.648600357355569,"eigenmodsbuf_100x_max","max","100x"
"210","Myrsine venosa",3,"rf",0.941703135924593,0.763251935675997,"eigenmodsbuf_100x_max","max","100x"
"211","Myrsine venosa",3,"svm",0.912253670663179,0.695652173913043,"eigenmodsbuf_100x_max","max","100x"
"212","Myrsine venosa",3,"mindist",0.906873296025255,0.655859064167286,"eigenmodsbuf_100x_max","max","100x"
"213","Myrsine villosissima",1,"BioClim",0.589163905671409,0.191580588579224,"eigenmodsbuf_100x_max","max","100x"
"214","Myrsine villosissima",1,"maxent",0.86376924576106,0.695186123562658,"eigenmodsbuf_100x_max","max","100x"
"215","Myrsine villosissima",1,"glm",0.828163265306122,0.687142857142857,"eigenmodsbuf_100x_max","max","100x"
"216","Myrsine villosissima",1,"rf",0.801938775510204,0.687142857142857,"eigenmodsbuf_100x_max","max","100x"
"217","Myrsine villosissima",1,"svm",0.71469387755102,0.424285714285714,"eigenmodsbuf_100x_max","max","100x"
"218","Myrsine villosissima",1,"mindist",0.808029623854999,0.632040537906841,"eigenmodsbuf_100x_max","max","100x"
"219","Myrsine villosissima",2,"BioClim",0.621338555858311,0.237397820163488,"eigenmodsbuf_100x_max","max","100x"
"220","Myrsine villosissima",2,"maxent",0.969686648501362,0.896457765667575,"eigenmodsbuf_100x_max","max","100x"
"221","Myrsine villosissima",2,"glm",0.945625,0.79625,"eigenmodsbuf_100x_max","max","100x"
"222","Myrsine villosissima",2,"rf",0.94765625,0.85,"eigenmodsbuf_100x_max","max","100x"
"223","Myrsine villosissima",2,"svm",0.638125,0.49375,"eigenmodsbuf_100x_max","max","100x"
"224","Myrsine villosissima",2,"mindist",0.849114441416894,0.595708446866485,"eigenmodsbuf_100x_max","max","100x"
"225","Myrsine villosissima",3,"BioClim",0.842818164100565,0.675696745273826,"eigenmodsbuf_100x_max","max","100x"
"226","Myrsine villosissima",3,"maxent",0.911908010134477,0.792633015006821,"eigenmodsbuf_100x_max","max","100x"
"227","Myrsine villosissima",3,"glm",0.938367346938776,0.837142857142857,"eigenmodsbuf_100x_max","max","100x"
"228","Myrsine villosissima",3,"rf",0.892040816326531,0.702857142857143,"eigenmodsbuf_100x_max","max","100x"
"229","Myrsine villosissima",3,"svm",0.596938775510204,0.507142857142857,"eigenmodsbuf_100x_max","max","100x"
"230","Myrsine villosissima",3,"mindist",0.853439875267979,0.665757162346521,"eigenmodsbuf_100x_max","max","100x"
"231","Myrsine balansae",1,"BioClim",0.776191135734072,0.407368421052632,"eigenmodsbuf_100x_mean","mean","100x"
"232","Myrsine balansae",1,"maxent",0.717617728531856,0.447894736842105,"eigenmodsbuf_100x_mean","mean","100x"
"233","Myrsine balansae",1,"glm",0.626648199445983,0.301578947368421,"eigenmodsbuf_100x_mean","mean","100x"
"234","Myrsine balansae",1,"rf",0.668711911357341,0.344736842105263,"eigenmodsbuf_100x_mean","mean","100x"
"235","Myrsine balansae",1,"svm",0.654653739612188,0.328947368421053,"eigenmodsbuf_100x_mean","mean","100x"
"236","Myrsine balansae",1,"mindist",0.752160664819945,0.446315789473684,"eigenmodsbuf_100x_mean","mean","100x"
"237","Myrsine balansae",2,"BioClim",0.647423822714681,0.277894736842105,"eigenmodsbuf_100x_mean","mean","100x"
"238","Myrsine balansae",2,"maxent",0.753130193905817,0.498947368421053,"eigenmodsbuf_100x_mean","mean","100x"
"239","Myrsine balansae",2,"glm",0.754072022160665,0.454736842105263,"eigenmodsbuf_100x_mean","mean","100x"
"240","Myrsine balansae",2,"rf",0.790637119113573,0.510526315789474,"eigenmodsbuf_100x_mean","mean","100x"
"241","Myrsine balansae",2,"svm",0.776481994459834,0.472105263157895,"eigenmodsbuf_100x_mean","mean","100x"
"242","Myrsine balansae",2,"mindist",0.752271468144044,0.480526315789474,"eigenmodsbuf_100x_mean","mean","100x"
"243","Myrsine balansae",3,"BioClim",0.565013850415512,0.122631578947368,"eigenmodsbuf_100x_mean","mean","100x"
"244","Myrsine balansae",3,"maxent",0.797617728531856,0.533684210526316,"eigenmodsbuf_100x_mean","mean","100x"
"245","Myrsine balansae",3,"glm",0.732548476454294,0.377368421052632,"eigenmodsbuf_100x_mean","mean","100x"
"246","Myrsine balansae",3,"rf",0.796634349030471,0.512631578947369,"eigenmodsbuf_100x_mean","mean","100x"
"247","Myrsine balansae",3,"svm",0.686842105263158,0.38421052631579,"eigenmodsbuf_100x_mean","mean","100x"
"248","Myrsine balansae",3,"mindist",0.782770083102493,0.514736842105263,"eigenmodsbuf_100x_mean","mean","100x"
"249","Myrsine coriacea",1,"BioClim",0.784134020878723,0.449924431695506,"eigenmodsbuf_100x_mean","mean","100x"
"250","Myrsine coriacea",1,"maxent",0.92017052172507,0.732939649105097,"eigenmodsbuf_100x_mean","mean","100x"
"251","Myrsine coriacea",1,"glm",0.865508716311482,0.587115123152204,"eigenmodsbuf_100x_mean","mean","100x"
"252","Myrsine coriacea",1,"rf",0.928101030376394,0.761586725598568,"eigenmodsbuf_100x_mean","mean","100x"
"253","Myrsine coriacea",1,"svm",0.863848111504674,0.695277154196755,"eigenmodsbuf_100x_mean","mean","100x"
"254","Myrsine coriacea",1,"mindist",0.846408939959416,0.557688479128287,"eigenmodsbuf_100x_mean","mean","100x"
"255","Myrsine coriacea",2,"BioClim",0.821089987609955,0.508133887241243,"eigenmodsbuf_100x_mean","mean","100x"
"256","Myrsine coriacea",2,"maxent",0.907961398374531,0.707395903996771,"eigenmodsbuf_100x_mean","mean","100x"
"257","Myrsine coriacea",2,"glm",0.854675235983647,0.601782155987763,"eigenmodsbuf_100x_mean","mean","100x"
"258","Myrsine coriacea",2,"rf",0.927150515000982,0.736875192949959,"eigenmodsbuf_100x_mean","mean","100x"
"259","Myrsine coriacea",2,"svm",0.850091212708035,0.658583817462322,"eigenmodsbuf_100x_mean","mean","100x"
"260","Myrsine coriacea",2,"mindist",0.84047396128251,0.542620447873042,"eigenmodsbuf_100x_mean","mean","100x"
"261","Myrsine coriacea",3,"BioClim",0.787923184841849,0.450417938990161,"eigenmodsbuf_100x_mean","mean","100x"
"262","Myrsine coriacea",3,"maxent",0.907638427394141,0.676584480877994,"eigenmodsbuf_100x_mean","mean","100x"
"263","Myrsine coriacea",3,"glm",0.848634836095123,0.581832584714696,"eigenmodsbuf_100x_mean","mean","100x"
"264","Myrsine coriacea",3,"rf",0.936542983069702,0.768714763658428,"eigenmodsbuf_100x_mean","mean","100x"
"265","Myrsine coriacea",3,"svm",0.851915836350749,0.665691917446887,"eigenmodsbuf_100x_mean","mean","100x"
"266","Myrsine coriacea",3,"mindist",0.826995783690519,0.538682840246641,"eigenmodsbuf_100x_mean","mean","100x"
"267","Myrsine gardneriana",1,"BioClim",0.761206120612061,0.411082160847664,"eigenmodsbuf_100x_mean","mean","100x"
"268","Myrsine gardneriana",1,"maxent",0.867355156568288,0.651159852827388,"eigenmodsbuf_100x_mean","mean","100x"
"269","Myrsine gardneriana",1,"glm",0.848644721046313,0.579288557528274,"eigenmodsbuf_100x_mean","mean","100x"
"270","Myrsine gardneriana",1,"rf",0.915135527895369,0.708529727680546,"eigenmodsbuf_100x_mean","mean","100x"
"271","Myrsine gardneriana",1,"svm",0.760772730144689,0.442948758450749,"eigenmodsbuf_100x_mean","mean","100x"
"272","Myrsine gardneriana",1,"mindist",0.821734805059453,0.511067948900153,"eigenmodsbuf_100x_mean","mean","100x"
"273","Myrsine gardneriana",2,"BioClim",0.828238562813753,0.561434028983677,"eigenmodsbuf_100x_mean","mean","100x"
"274","Myrsine gardneriana",2,"maxent",0.923199570612193,0.748337700880876,"eigenmodsbuf_100x_mean","mean","100x"
"275","Myrsine gardneriana",2,"glm",0.892726871134671,0.645935882872649,"eigenmodsbuf_100x_mean","mean","100x"
"276","Myrsine gardneriana",2,"rf",0.92171683705667,0.753410955446169,"eigenmodsbuf_100x_mean","mean","100x"
"277","Myrsine gardneriana",2,"svm",0.752975514325382,0.466168118137069,"eigenmodsbuf_100x_mean","mean","100x"
"278","Myrsine gardneriana",2,"mindist",0.861146718024816,0.598768667319168,"eigenmodsbuf_100x_mean","mean","100x"
"279","Myrsine gardneriana",3,"BioClim",0.79265400224233,0.494790531684747,"eigenmodsbuf_100x_mean","mean","100x"
"280","Myrsine gardneriana",3,"maxent",0.879220553634311,0.625230944147046,"eigenmodsbuf_100x_mean","mean","100x"
"281","Myrsine gardneriana",3,"glm",0.868844379857206,0.648527832185506,"eigenmodsbuf_100x_mean","mean","100x"
"282","Myrsine gardneriana",3,"rf",0.900597080937638,0.678539836987426,"eigenmodsbuf_100x_mean","mean","100x"
"283","Myrsine gardneriana",3,"svm",0.747564288873444,0.500170594553611,"eigenmodsbuf_100x_mean","mean","100x"
"284","Myrsine gardneriana",3,"mindist",0.848800669540638,0.59227817518594,"eigenmodsbuf_100x_mean","mean","100x"
"285","Myrsine guianensis",1,"BioClim",0.729417693150531,0.377676441677317,"eigenmodsbuf_100x_mean","mean","100x"
"286","Myrsine guianensis",1,"maxent",0.869172000072935,0.589502596668507,"eigenmodsbuf_100x_mean","mean","100x"
"287","Myrsine guianensis",1,"glm",0.827046717753212,0.545805810166211,"eigenmodsbuf_100x_mean","mean","100x"
"288","Myrsine guianensis",1,"rf",0.885810931013213,0.658439505006958,"eigenmodsbuf_100x_mean","mean","100x"
"289","Myrsine guianensis",1,"svm",0.795821189333342,0.513049015483912,"eigenmodsbuf_100x_mean","mean","100x"
"290","Myrsine guianensis",1,"mindist",0.749562801584026,0.403435923702868,"eigenmodsbuf_100x_mean","mean","100x"
"291","Myrsine guianensis",2,"BioClim",0.766016302234059,0.400775888778288,"eigenmodsbuf_100x_mean","mean","100x"
"292","Myrsine guianensis",2,"maxent",0.871947039163596,0.637735090344568,"eigenmodsbuf_100x_mean","mean","100x"
"293","Myrsine guianensis",2,"glm",0.829894695468466,0.545706752264129,"eigenmodsbuf_100x_mean","mean","100x"
"294","Myrsine guianensis",2,"rf",0.89947347734233,0.669234044643881,"eigenmodsbuf_100x_mean","mean","100x"
"295","Myrsine guianensis",2,"svm",0.834663696958779,0.596343001261034,"eigenmodsbuf_100x_mean","mean","100x"
"296","Myrsine guianensis",2,"mindist",0.805136225502152,0.471756198210907,"eigenmodsbuf_100x_mean","mean","100x"
"297","Myrsine guianensis",3,"BioClim",0.738746802857081,0.376514447024813,"eigenmodsbuf_100x_mean","mean","100x"
"298","Myrsine guianensis",3,"maxent",0.846106157577084,0.594054433067616,"eigenmodsbuf_100x_mean","mean","100x"
"299","Myrsine guianensis",3,"glm",0.817879131588839,0.504222644283381,"eigenmodsbuf_100x_mean","mean","100x"
"300","Myrsine guianensis",3,"rf",0.870376129669606,0.60151143722912,"eigenmodsbuf_100x_mean","mean","100x"
"301","Myrsine guianensis",3,"svm",0.781109362994402,0.486264348508687,"eigenmodsbuf_100x_mean","mean","100x"
"302","Myrsine guianensis",3,"mindist",0.747701289465963,0.382699043385001,"eigenmodsbuf_100x_mean","mean","100x"
"303","Myrsine hermogenesii",1,"BioClim",0.549134850479594,0.100902764716946,"eigenmodsbuf_100x_mean","mean","100x"
"304","Myrsine hermogenesii",1,"maxent",0.680835057363175,0.451382358472823,"eigenmodsbuf_100x_mean","mean","100x"
"305","Myrsine hermogenesii",1,"glm",0.661905221503716,0.340507673004536,"eigenmodsbuf_100x_mean","mean","100x"
"306","Myrsine hermogenesii",1,"rf",0.536338191294277,0.194286265804459,"eigenmodsbuf_100x_mean","mean","100x"
"307","Myrsine hermogenesii",1,"svm",0.65495608531995,0.327091979538655,"eigenmodsbuf_100x_mean","mean","100x"
"308","Myrsine hermogenesii",1,"mindist",0.511848786909912,0.206695504984014,"eigenmodsbuf_100x_mean","mean","100x"
"309","Myrsine hermogenesii",2,"BioClim",0.735137261759049,0.463455149501661,"eigenmodsbuf_100x_mean","mean","100x"
"310","Myrsine hermogenesii",2,"maxent",0.655534184297954,0.402605350585767,"eigenmodsbuf_100x_mean","mean","100x"
"311","Myrsine hermogenesii",2,"glm",0.638278388278388,0.24958374958375,"eigenmodsbuf_100x_mean","mean","100x"
"312","Myrsine hermogenesii",2,"rf",0.595862470862471,0.275557775557776,"eigenmodsbuf_100x_mean","mean","100x"
"313","Myrsine hermogenesii",2,"svm",0.601481851481852,0.277888777888778,"eigenmodsbuf_100x_mean","mean","100x"
"314","Myrsine hermogenesii",2,"mindist",0.630092673544326,0.328816226613044,"eigenmodsbuf_100x_mean","mean","100x"
"315","Myrsine hermogenesii",3,"BioClim",0.580684596577017,0.25220989279669,"eigenmodsbuf_100x_mean","mean","100x"
"316","Myrsine hermogenesii",3,"maxent",0.58679706601467,0.252397968779387,"eigenmodsbuf_100x_mean","mean","100x"
"317","Myrsine hermogenesii",3,"glm",0.534220165799113,0.151050703682283,"eigenmodsbuf_100x_mean","mean","100x"
"318","Myrsine hermogenesii",3,"rf",0.618565644881434,0.283015230383652,"eigenmodsbuf_100x_mean","mean","100x"
"319","Myrsine hermogenesii",3,"mindist",0.587267255971412,0.243558397592627,"eigenmodsbuf_100x_mean","mean","100x"
"320","Myrsine lancifolia",1,"BioClim",0.580289256198347,0.184545454545455,"eigenmodsbuf_100x_mean","mean","100x"
"321","Myrsine lancifolia",1,"maxent",0.876198347107438,0.663636363636364,"eigenmodsbuf_100x_mean","mean","100x"
"322","Myrsine lancifolia",1,"glm",0.838181818181818,0.662727272727273,"eigenmodsbuf_100x_mean","mean","100x"
"323","Myrsine lancifolia",1,"rf",0.878925619834711,0.740909090909091,"eigenmodsbuf_100x_mean","mean","100x"
"324","Myrsine lancifolia",1,"svm",0.719586776859504,0.359090909090909,"eigenmodsbuf_100x_mean","mean","100x"
"325","Myrsine lancifolia",1,"mindist",0.710743801652893,0.385454545454545,"eigenmodsbuf_100x_mean","mean","100x"
"326","Myrsine lancifolia",2,"BioClim",0.568140495867769,0.16,"eigenmodsbuf_100x_mean","mean","100x"
"327","Myrsine lancifolia",2,"maxent",0.719586776859504,0.472727272727273,"eigenmodsbuf_100x_mean","mean","100x"
"328","Myrsine lancifolia",2,"glm",0.74702479338843,0.431818181818182,"eigenmodsbuf_100x_mean","mean","100x"
"329","Myrsine lancifolia",2,"rf",0.786859504132231,0.509090909090909,"eigenmodsbuf_100x_mean","mean","100x"
"330","Myrsine lancifolia",2,"svm",0.593801652892562,0.296363636363636,"eigenmodsbuf_100x_mean","mean","100x"
"331","Myrsine lancifolia",2,"mindist",0.694132231404959,0.359090909090909,"eigenmodsbuf_100x_mean","mean","100x"
"332","Myrsine lancifolia",3,"BioClim",0.574132231404959,0.258181818181818,"eigenmodsbuf_100x_mean","mean","100x"
"333","Myrsine lancifolia",3,"maxent",0.77297520661157,0.535454545454545,"eigenmodsbuf_100x_mean","mean","100x"
"334","Myrsine lancifolia",3,"glm",0.748429752066116,0.411818181818182,"eigenmodsbuf_100x_mean","mean","100x"
"335","Myrsine lancifolia",3,"rf",0.765247933884298,0.512727272727273,"eigenmodsbuf_100x_mean","mean","100x"
"336","Myrsine lancifolia",3,"svm",0.643553719008264,0.309090909090909,"eigenmodsbuf_100x_mean","mean","100x"
"337","Myrsine lancifolia",3,"mindist",0.50595041322314,0.162727272727273,"eigenmodsbuf_100x_mean","mean","100x"
"338","Myrsine leuconeura",1,"BioClim",0.540891356542617,0.144807923169268,"eigenmodsbuf_100x_mean","mean","100x"
"339","Myrsine leuconeura",1,"maxent",0.622599039615846,0.337935174069628,"eigenmodsbuf_100x_mean","mean","100x"
"340","Myrsine leuconeura",1,"glm",0.73015625,0.5875,"eigenmodsbuf_100x_mean","mean","100x"
"341","Myrsine leuconeura",1,"rf",0.780546875,0.62,"eigenmodsbuf_100x_mean","mean","100x"
"342","Myrsine leuconeura",1,"svm",0.63140625,0.35625,"eigenmodsbuf_100x_mean","mean","100x"
"343","Myrsine leuconeura",1,"mindist",0.66281512605042,0.394507803121249,"eigenmodsbuf_100x_mean","mean","100x"
"344","Myrsine leuconeura",2,"maxent",0.819477751132427,0.633493205435651,"eigenmodsbuf_100x_mean","mean","100x"
"345","Myrsine leuconeura",2,"glm",0.750493827160494,0.513333333333333,"eigenmodsbuf_100x_mean","mean","100x"
"346","Myrsine leuconeura",2,"rf",0.666111111111111,0.527777777777778,"eigenmodsbuf_100x_mean","mean","100x"
"347","Myrsine leuconeura",3,"BioClim",0.549294717887155,0.128151260504202,"eigenmodsbuf_100x_mean","mean","100x"
"348","Myrsine leuconeura",3,"maxent",0.554921968787515,0.369747899159664,"eigenmodsbuf_100x_mean","mean","100x"
"349","Myrsine leuconeura",3,"glm",0.5934375,0.3125,"eigenmodsbuf_100x_mean","mean","100x"
"350","Myrsine leuconeura",3,"rf",0.640546875,0.40375,"eigenmodsbuf_100x_mean","mean","100x"
"351","Myrsine leuconeura",3,"svm",0.77046875,0.5125,"eigenmodsbuf_100x_mean","mean","100x"
"352","Myrsine leuconeura",3,"mindist",0.777310924369748,0.653961584633854,"eigenmodsbuf_100x_mean","mean","100x"
"353","Myrsine parvifolia",1,"BioClim",0.572168597168597,0.122651222651223,"eigenmodsbuf_100x_mean","mean","100x"
"354","Myrsine parvifolia",1,"maxent",0.557335907335907,0.216409266409266,"eigenmodsbuf_100x_mean","mean","100x"
"355","Myrsine parvifolia",1,"glm",0.567503522479826,0.175291405149225,"eigenmodsbuf_100x_mean","mean","100x"
"356","Myrsine parvifolia",1,"rf",0.61432048161906,0.290380427821186,"eigenmodsbuf_100x_mean","mean","100x"
"357","Myrsine parvifolia",1,"svm",0.566478801075957,0.173818368131164,"eigenmodsbuf_100x_mean","mean","100x"
"358","Myrsine parvifolia",1,"mindist",0.648777348777349,0.279021879021879,"eigenmodsbuf_100x_mean","mean","100x"
"359","Myrsine parvifolia",2,"maxent",0.643728453990984,0.272474144789181,"eigenmodsbuf_100x_mean","mean","100x"
"360","Myrsine parvifolia",2,"glm",0.668228742189622,0.325658788372725,"eigenmodsbuf_100x_mean","mean","100x"
"361","Myrsine parvifolia",2,"rf",0.637972018473241,0.277438196142353,"eigenmodsbuf_100x_mean","mean","100x"
"362","Myrsine parvifolia",2,"svm",0.599022004889976,0.198383591415376,"eigenmodsbuf_100x_mean","mean","100x"
"363","Myrsine parvifolia",2,"mindist",0.649098382391939,0.279832935560859,"eigenmodsbuf_100x_mean","mean","100x"
"364","Myrsine parvifolia",3,"BioClim",0.53970398970399,0.107335907335907,"eigenmodsbuf_100x_mean","mean","100x"
"365","Myrsine parvifolia",3,"maxent",0.644658944658945,0.21969111969112,"eigenmodsbuf_100x_mean","mean","100x"
"366","Myrsine parvifolia",3,"glm",0.556327355392776,0.135008840616317,"eigenmodsbuf_100x_mean","mean","100x"
"367","Myrsine parvifolia",3,"rf",0.636461227582723,0.265471078555191,"eigenmodsbuf_100x_mean","mean","100x"
"368","Myrsine parvifolia",3,"svm",0.631725183127052,0.261177064915383,"eigenmodsbuf_100x_mean","mean","100x"
"369","Myrsine parvifolia",3,"mindist",0.606241956241956,0.182303732303732,"eigenmodsbuf_100x_mean","mean","100x"
"370","Myrsine parvula",1,"BioClim",0.692492933503877,0.367465693937815,"eigenmodsbuf_100x_mean","mean","100x"
"371","Myrsine parvula",1,"maxent",0.814842010516841,0.521120533105942,"eigenmodsbuf_100x_mean","mean","100x"
"372","Myrsine parvula",1,"glm",0.755935654974268,0.427730243424999,"eigenmodsbuf_100x_mean","mean","100x"
"373","Myrsine parvula",1,"rf",0.834247624159379,0.526742020017049,"eigenmodsbuf_100x_mean","mean","100x"
"374","Myrsine parvula",1,"svm",0.697881476336312,0.328102800492533,"eigenmodsbuf_100x_mean","mean","100x"
"375","Myrsine parvula",1,"mindist",0.789781609739921,0.486277575125934,"eigenmodsbuf_100x_mean","mean","100x"
"376","Myrsine parvula",2,"BioClim",0.662524074132542,0.295930287626685,"eigenmodsbuf_100x_mean","mean","100x"
"377","Myrsine parvula",2,"maxent",0.812797966722445,0.530104505414707,"eigenmodsbuf_100x_mean","mean","100x"
"378","Myrsine parvula",2,"glm",0.798063853327011,0.526868974237395,"eigenmodsbuf_100x_mean","mean","100x"
"379","Myrsine parvula",2,"rf",0.800486012328118,0.484368579105421,"eigenmodsbuf_100x_mean","mean","100x"
"380","Myrsine parvula",2,"svm",0.707586533902323,0.394673620989411,"eigenmodsbuf_100x_mean","mean","100x"
"381","Myrsine parvula",2,"mindist",0.708268872541281,0.37814542354687,"eigenmodsbuf_100x_mean","mean","100x"
"382","Myrsine parvula",3,"BioClim",0.741942615314163,0.400761128744453,"eigenmodsbuf_100x_mean","mean","100x"
"383","Myrsine parvula",3,"maxent",0.854019612487565,0.580905458966949,"eigenmodsbuf_100x_mean","mean","100x"
"384","Myrsine parvula",3,"glm",0.787201817493374,0.440442382935757,"eigenmodsbuf_100x_mean","mean","100x"
"385","Myrsine parvula",3,"rf",0.819994004796163,0.563154739366402,"eigenmodsbuf_100x_mean","mean","100x"
"386","Myrsine parvula",3,"svm",0.711181055155875,0.354616306954437,"eigenmodsbuf_100x_mean","mean","100x"
"387","Myrsine parvula",3,"mindist",0.796398060858717,0.533848121654271,"eigenmodsbuf_100x_mean","mean","100x"
"388","Myrsine rubra",1,"maxent",0.944206008583691,0.944206008583691,"eigenmodsbuf_100x_mean","mean","100x"
"389","Myrsine rubra",2,"maxent",0.582621082621083,0.478632478632479,"eigenmodsbuf_100x_mean","mean","100x"
"390","Myrsine rubra",2,"glm",0.621111111111111,0.55,"eigenmodsbuf_100x_mean","mean","100x"
"391","Myrsine rubra",2,"rf",0.757777777777778,0.453333333333333,"eigenmodsbuf_100x_mean","mean","100x"
"392","Myrsine rubra",2,"svm",0.923333333333333,0.853333333333333,"eigenmodsbuf_100x_mean","mean","100x"
"393","Myrsine rubra",2,"mindist",0.975783475783476,0.944444444444444,"eigenmodsbuf_100x_mean","mean","100x"
"394","Myrsine rubra",3,"BioClim",0.726394849785408,0.46137339055794,"eigenmodsbuf_100x_mean","mean","100x"
"395","Myrsine rubra",3,"maxent",0.67381974248927,0.536480686695279,"eigenmodsbuf_100x_mean","mean","100x"
"396","Myrsine rubra",3,"glm",0.725,0.575,"eigenmodsbuf_100x_mean","mean","100x"
"397","Myrsine rubra",3,"rf",0.9375,0.885,"eigenmodsbuf_100x_mean","mean","100x"
"398","Myrsine rubra",3,"svm",0.9375,0.895,"eigenmodsbuf_100x_mean","mean","100x"
"399","Myrsine rubra",3,"mindist",0.954935622317597,0.92274678111588,"eigenmodsbuf_100x_mean","mean","100x"
"400","Myrsine umbellata",1,"BioClim",0.804658824091364,0.502339786217428,"eigenmodsbuf_100x_mean","mean","100x"
"401","Myrsine umbellata",1,"maxent",0.908526673562879,0.659828669434108,"eigenmodsbuf_100x_mean","mean","100x"
"402","Myrsine umbellata",1,"glm",0.866535389021907,0.562582887660647,"eigenmodsbuf_100x_mean","mean","100x"
"403","Myrsine umbellata",1,"rf",0.918917406968158,0.697755599812034,"eigenmodsbuf_100x_mean","mean","100x"
"404","Myrsine umbellata",1,"svm",0.822506657119202,0.549180633563815,"eigenmodsbuf_100x_mean","mean","100x"
"405","Myrsine umbellata",1,"mindist",0.884884010789139,0.619727644406232,"eigenmodsbuf_100x_mean","mean","100x"
"406","Myrsine umbellata",2,"BioClim",0.824034446841975,0.51981394765823,"eigenmodsbuf_100x_mean","mean","100x"
"407","Myrsine umbellata",2,"maxent",0.898609830272751,0.65448104408969,"eigenmodsbuf_100x_mean","mean","100x"
"408","Myrsine umbellata",2,"glm",0.85276050718795,0.544346096647614,"eigenmodsbuf_100x_mean","mean","100x"
"409","Myrsine umbellata",2,"rf",0.919596943254914,0.721440815132023,"eigenmodsbuf_100x_mean","mean","100x"
"410","Myrsine umbellata",2,"svm",0.841248439674377,0.631957260516147,"eigenmodsbuf_100x_mean","mean","100x"
"411","Myrsine umbellata",2,"mindist",0.871285444403657,0.623463367028087,"eigenmodsbuf_100x_mean","mean","100x"
"412","Myrsine umbellata",3,"BioClim",0.79529744019178,0.432938816269687,"eigenmodsbuf_100x_mean","mean","100x"
"413","Myrsine umbellata",3,"maxent",0.904468058746173,0.660603373770213,"eigenmodsbuf_100x_mean","mean","100x"
"414","Myrsine umbellata",3,"glm",0.85920084545768,0.580137118189431,"eigenmodsbuf_100x_mean","mean","100x"
"415","Myrsine umbellata",3,"rf",0.926659830162121,0.745507386559551,"eigenmodsbuf_100x_mean","mean","100x"
"416","Myrsine umbellata",3,"svm",0.838771936895182,0.621684556515353,"eigenmodsbuf_100x_mean","mean","100x"
"417","Myrsine umbellata",3,"mindist",0.884981035416974,0.662202041099632,"eigenmodsbuf_100x_mean","mean","100x"
"418","Myrsine venosa",1,"BioClim",0.658827107835597,0.297152726306515,"eigenmodsbuf_100x_mean","mean","100x"
"419","Myrsine venosa",1,"maxent",0.75361153453508,0.382347182793293,"eigenmodsbuf_100x_mean","mean","100x"
"420","Myrsine venosa",1,"glm",0.686767727247487,0.330515297906602,"eigenmodsbuf_100x_mean","mean","100x"
"421","Myrsine venosa",1,"rf",0.773227969348659,0.488380809595202,"eigenmodsbuf_100x_mean","mean","100x"
"422","Myrsine venosa",1,"svm",0.627533455494475,0.287703370536954,"eigenmodsbuf_100x_mean","mean","100x"
"423","Myrsine venosa",1,"mindist",0.712391793810396,0.377865104115681,"eigenmodsbuf_100x_mean","mean","100x"
"424","Myrsine venosa",2,"BioClim",0.6250715000715,0.234084084084084,"eigenmodsbuf_100x_mean","mean","100x"
"425","Myrsine venosa",2,"maxent",0.750622050622051,0.441934791934792,"eigenmodsbuf_100x_mean","mean","100x"
"426","Myrsine venosa",2,"glm",0.702576384353001,0.377371362217868,"eigenmodsbuf_100x_mean","mean","100x"
"427","Myrsine venosa",2,"rf",0.793083678060817,0.505334204223819,"eigenmodsbuf_100x_mean","mean","100x"
"428","Myrsine venosa",2,"svm",0.721489222730242,0.40931852819508,"eigenmodsbuf_100x_mean","mean","100x"
"429","Myrsine venosa",2,"mindist",0.802967252967253,0.536593736593737,"eigenmodsbuf_100x_mean","mean","100x"
"430","Myrsine venosa",3,"BioClim",0.630941725984869,0.213056064441243,"eigenmodsbuf_100x_mean","mean","100x"
"431","Myrsine venosa",3,"maxent",0.725859006810522,0.379941823877383,"eigenmodsbuf_100x_mean","mean","100x"
"432","Myrsine venosa",3,"glm",0.699795935365651,0.321089455272364,"eigenmodsbuf_100x_mean","mean","100x"
"433","Myrsine venosa",3,"rf",0.859684740962852,0.600671886279083,"eigenmodsbuf_100x_mean","mean","100x"
"434","Myrsine venosa",3,"svm",0.752595924260092,0.434393914154034,"eigenmodsbuf_100x_mean","mean","100x"
"435","Myrsine venosa",3,"mindist",0.724236788006769,0.393248213461619,"eigenmodsbuf_100x_mean","mean","100x"
"436","Myrsine villosissima",1,"maxent",0.744689144416293,0.635158838433054,"eigenmodsbuf_100x_mean","mean","100x"
"437","Myrsine villosissima",1,"glm",0.729183673469388,0.608571428571429,"eigenmodsbuf_100x_mean","mean","100x"
"438","Myrsine villosissima",1,"rf",0.707551020408163,0.512857142857143,"eigenmodsbuf_100x_mean","mean","100x"
"439","Myrsine villosissima",1,"svm",0.636122448979592,0.312857142857143,"eigenmodsbuf_100x_mean","mean","100x"
"440","Myrsine villosissima",1,"mindist",0.543753654258429,0.272656402260768,"eigenmodsbuf_100x_mean","mean","100x"
"441","Myrsine villosissima",2,"maxent",0.86716621253406,0.602179836512262,"eigenmodsbuf_100x_mean","mean","100x"
"442","Myrsine villosissima",2,"glm",0.785,0.5525,"eigenmodsbuf_100x_mean","mean","100x"
"443","Myrsine villosissima",2,"rf",0.87359375,0.7025,"eigenmodsbuf_100x_mean","mean","100x"
"444","Myrsine villosissima",2,"svm",0.69984375,0.45375,"eigenmodsbuf_100x_mean","mean","100x"
"445","Myrsine villosissima",2,"mindist",0.592302452316076,0.309264305177112,"eigenmodsbuf_100x_mean","mean","100x"
"446","Myrsine villosissima",3,"BioClim",0.650068212824011,0.300526213213798,"eigenmodsbuf_100x_mean","mean","100x"
"447","Myrsine villosissima",3,"maxent",0.724225297213019,0.459559540050672,"eigenmodsbuf_100x_mean","mean","100x"
"448","Myrsine villosissima",3,"glm",0.807551020408163,0.652857142857143,"eigenmodsbuf_100x_mean","mean","100x"
"449","Myrsine villosissima",3,"rf",0.782244897959184,0.452857142857143,"eigenmodsbuf_100x_mean","mean","100x"
"450","Myrsine villosissima",3,"svm",0.582244897959184,0.271428571428571,"eigenmodsbuf_100x_mean","mean","100x"
"451","Myrsine villosissima",3,"mindist",0.609237965308907,0.342623270317677,"eigenmodsbuf_100x_mean","mean","100x"
"452","Myrsine balansae",1,"BioClim",0.892873497876103,0.730320400461099,"eigenmodsbuf10000max","max","10000"
"453","Myrsine balansae",1,"maxent",0.896916007390213,0.724919860407093,"eigenmodsbuf10000max","max","10000"
"454","Myrsine balansae",1,"glm",0.83700475310689,0.604355172359341,"eigenmodsbuf10000max","max","10000"
"455","Myrsine balansae",1,"rf",0.888744137571652,0.664234844537085,"eigenmodsbuf10000max","max","10000"
"456","Myrsine balansae",1,"svm",0.891010153646944,0.737347418952421,"eigenmodsbuf10000max","max","10000"
"457","Myrsine balansae",1,"mindist",0.915233628626021,0.684242108421368,"eigenmodsbuf10000max","max","10000"
"458","Myrsine balansae",2,"BioClim",0.833983203359328,0.600053673475831,"eigenmodsbuf10000max","max","10000"
"459","Myrsine balansae",2,"maxent",0.916869257727402,0.805796735389764,"eigenmodsbuf10000max","max","10000"
"460","Myrsine balansae",2,"glm",0.887867734141835,0.718019170338086,"eigenmodsbuf10000max","max","10000"
"461","Myrsine balansae",2,"rf",0.892723482874603,0.682062943136419,"eigenmodsbuf10000max","max","10000"
"462","Myrsine balansae",2,"svm",0.897184455287634,0.674814849906043,"eigenmodsbuf10000max","max","10000"
"463","Myrsine balansae",2,"mindist",0.909307612161778,0.725270735326619,"eigenmodsbuf10000max","max","10000"
"464","Myrsine balansae",3,"BioClim",0.759265400224233,0.498791984461604,"eigenmodsbuf10000max","max","10000"
"465","Myrsine balansae",3,"maxent",0.930014054036983,0.735294582089788,"eigenmodsbuf10000max","max","10000"
"466","Myrsine balansae",3,"glm",0.912606952293752,0.715214851766489,"eigenmodsbuf10000max","max","10000"
"467","Myrsine balansae",3,"rf",0.923807343794399,0.788700154705901,"eigenmodsbuf10000max","max","10000"
"468","Myrsine balansae",3,"svm",0.832917627000916,0.593328702680517,"eigenmodsbuf10000max","max","10000"
"469","Myrsine balansae",3,"mindist",0.894247319468789,0.702891341765755,"eigenmodsbuf10000max","max","10000"
"470","Myrsine coriacea",1,"BioClim",0.816673256110658,0.506030042256562,"eigenmodsbuf10000max","max","10000"
"471","Myrsine coriacea",1,"maxent",0.938543387048985,0.779144269567144,"eigenmodsbuf10000max","max","10000"
"472","Myrsine coriacea",1,"glm",0.892566696766294,0.645890469041648,"eigenmodsbuf10000max","max","10000"
"473","Myrsine coriacea",1,"rf",0.951231615231716,0.81144773614462,"eigenmodsbuf10000max","max","10000"
"474","Myrsine coriacea",1,"svm",0.905940995412369,0.763295788009166,"eigenmodsbuf10000max","max","10000"
"475","Myrsine coriacea",1,"mindist",0.88618488017026,0.629510614612863,"eigenmodsbuf10000max","max","10000"
"476","Myrsine coriacea",2,"BioClim",0.855025723827197,0.573220869844723,"eigenmodsbuf10000max","max","10000"
"477","Myrsine coriacea",2,"maxent",0.940052176480592,0.773873262730632,"eigenmodsbuf10000max","max","10000"
"478","Myrsine coriacea",2,"glm",0.876286566940773,0.63237630153518,"eigenmodsbuf10000max","max","10000"
"479","Myrsine coriacea",2,"rf",0.95060387490294,0.81037018326738,"eigenmodsbuf10000max","max","10000"
"480","Myrsine coriacea",2,"svm",0.896248585033632,0.762403525020348,"eigenmodsbuf10000max","max","10000"
"481","Myrsine coriacea",2,"mindist",0.88899977013943,0.628464026820804,"eigenmodsbuf10000max","max","10000"
"482","Myrsine coriacea",3,"BioClim",0.834829277320255,0.535626459842246,"eigenmodsbuf10000max","max","10000"
"483","Myrsine coriacea",3,"maxent",0.943687826726598,0.777784320488124,"eigenmodsbuf10000max","max","10000"
"484","Myrsine coriacea",3,"glm",0.868373273706023,0.597819033734188,"eigenmodsbuf10000max","max","10000"
"485","Myrsine coriacea",3,"rf",0.957496345860874,0.818255620257929,"eigenmodsbuf10000max","max","10000"
"486","Myrsine coriacea",3,"svm",0.921814063543162,0.775327327529783,"eigenmodsbuf10000max","max","10000"
"487","Myrsine coriacea",3,"mindist",0.879826300387048,0.616180309619747,"eigenmodsbuf10000max","max","10000"
"488","Myrsine gardneriana",1,"BioClim",0.89809244082303,0.680565951331975,"eigenmodsbuf10000max","max","10000"
"489","Myrsine gardneriana",1,"maxent",0.943496454908649,0.788999952626842,"eigenmodsbuf10000max","max","10000"
"490","Myrsine gardneriana",1,"glm",0.916746698679472,0.691511341378657,"eigenmodsbuf10000max","max","10000"
"491","Myrsine gardneriana",1,"rf",0.966759335313073,0.814949137549757,"eigenmodsbuf10000max","max","10000"
"492","Myrsine gardneriana",1,"svm",0.817075251153093,0.672872306817464,"eigenmodsbuf10000max","max","10000"
"493","Myrsine gardneriana",1,"mindist",0.951632005305794,0.778100967991536,"eigenmodsbuf10000max","max","10000"
"494","Myrsine gardneriana",2,"BioClim",0.943439206895463,0.786073311653459,"eigenmodsbuf10000max","max","10000"
"495","Myrsine gardneriana",2,"maxent",0.976933034445742,0.863056862311748,"eigenmodsbuf10000max","max","10000"
"496","Myrsine gardneriana",2,"glm",0.955114855484034,0.777795658210274,"eigenmodsbuf10000max","max","10000"
"497","Myrsine gardneriana",2,"rf",0.975656317051622,0.885882872649249,"eigenmodsbuf10000max","max","10000"
"498","Myrsine gardneriana",2,"svm",0.932762211283605,0.831383314401111,"eigenmodsbuf10000max","max","10000"
"499","Myrsine gardneriana",2,"mindist",0.966204653806081,0.828835285574464,"eigenmodsbuf10000max","max","10000"
"500","Myrsine gardneriana",3,"BioClim",0.903254535979914,0.72026781625531,"eigenmodsbuf10000max","max","10000"
"501","Myrsine gardneriana",3,"maxent",0.965499707865523,0.822555939804507,"eigenmodsbuf10000max","max","10000"
"502","Myrsine gardneriana",3,"glm",0.940108675048967,0.752113476969735,"eigenmodsbuf10000max","max","10000"
"503","Myrsine gardneriana",3,"rf",0.96500442282176,0.823842168446326,"eigenmodsbuf10000max","max","10000"
"504","Myrsine gardneriana",3,"svm",0.847046186895811,0.713132621469641,"eigenmodsbuf10000max","max","10000"
"505","Myrsine gardneriana",3,"mindist",0.951575157515752,0.795878535221943,"eigenmodsbuf10000max","max","10000"
"506","Myrsine guianensis",1,"BioClim",0.775305707366317,0.44038271230438,"eigenmodsbuf10000max","max","10000"
"507","Myrsine guianensis",1,"maxent",0.90262285897098,0.67310819479738,"eigenmodsbuf10000max","max","10000"
"508","Myrsine guianensis",1,"glm",0.844071871420187,0.549764490916316,"eigenmodsbuf10000max","max","10000"
"509","Myrsine guianensis",1,"rf",0.924750150882099,0.711126037678128,"eigenmodsbuf10000max","max","10000"
"510","Myrsine guianensis",1,"svm",0.849164454006315,0.588135928560859,"eigenmodsbuf10000max","max","10000"
"511","Myrsine guianensis",1,"mindist",0.819390226315449,0.479892188113839,"eigenmodsbuf10000max","max","10000"
"512","Myrsine guianensis",2,"BioClim",0.798928950473642,0.43486687277929,"eigenmodsbuf10000max","max","10000"
"513","Myrsine guianensis",2,"maxent",0.900291370297369,0.688685339855106,"eigenmodsbuf10000max","max","10000"
"514","Myrsine guianensis",2,"glm",0.837164474869393,0.559417631548779,"eigenmodsbuf10000max","max","10000"
"515","Myrsine guianensis",2,"rf",0.921664401172598,0.726799430078119,"eigenmodsbuf10000max","max","10000"
"516","Myrsine guianensis",2,"svm",0.858657735706916,0.588396849052587,"eigenmodsbuf10000max","max","10000"
"517","Myrsine guianensis",2,"mindist",0.859151796014423,0.53984587697845,"eigenmodsbuf10000max","max","10000"
"518","Myrsine guianensis",3,"BioClim",0.774857319986142,0.419577869389149,"eigenmodsbuf10000max","max","10000"
"519","Myrsine guianensis",3,"maxent",0.882174405285832,0.653717305432201,"eigenmodsbuf10000max","max","10000"
"520","Myrsine guianensis",3,"glm",0.822028598893697,0.507214584837065,"eigenmodsbuf10000max","max","10000"
"521","Myrsine guianensis",3,"rf",0.906361740414647,0.684946497650021,"eigenmodsbuf10000max","max","10000"
"522","Myrsine guianensis",3,"svm",0.855274230727013,0.583109090243846,"eigenmodsbuf10000max","max","10000"
"523","Myrsine guianensis",3,"mindist",0.812592308954652,0.460081919794189,"eigenmodsbuf10000max","max","10000"
"524","Myrsine hermogenesii",1,"BioClim",0.691257587297191,0.377230030695377,"eigenmodsbuf10000max","max","10000"
"525","Myrsine hermogenesii",1,"maxent",0.932285536245932,0.794179417941794,"eigenmodsbuf10000max","max","10000"
"526","Myrsine hermogenesii",1,"glm",0.914319526627219,0.718153846153846,"eigenmodsbuf10000max","max","10000"
"527","Myrsine hermogenesii",1,"rf",0.848710059171598,0.591076923076923,"eigenmodsbuf10000max","max","10000"
"528","Myrsine hermogenesii",1,"svm",0.856284023668639,0.663384615384615,"eigenmodsbuf10000max","max","10000"
"529","Myrsine hermogenesii",1,"mindist",0.877310808003877,0.715756191003716,"eigenmodsbuf10000max","max","10000"
"530","Myrsine hermogenesii",2,"BioClim",0.914774188019539,0.805296083640415,"eigenmodsbuf10000max","max","10000"
"531","Myrsine hermogenesii",2,"maxent",0.913660125117834,0.712228982774874,"eigenmodsbuf10000max","max","10000"
"532","Myrsine hermogenesii",2,"glm",0.900142857142857,0.749428571428571,"eigenmodsbuf10000max","max","10000"
"533","Myrsine hermogenesii",2,"rf",0.877244897959184,0.585142857142857,"eigenmodsbuf10000max","max","10000"
"534","Myrsine hermogenesii",2,"svm",0.940408163265306,0.821714285714286,"eigenmodsbuf10000max","max","10000"
"535","Myrsine hermogenesii",2,"mindist",0.90609735195818,0.77624475104979,"eigenmodsbuf10000max","max","10000"
"536","Myrsine hermogenesii",3,"BioClim",0.795137206028295,0.601098571395601,"eigenmodsbuf10000max","max","10000"
"537","Myrsine hermogenesii",3,"maxent",0.853885388538854,0.648618708024649,"eigenmodsbuf10000max","max","10000"
"538","Myrsine hermogenesii",3,"glm",0.840686390532544,0.601846153846154,"eigenmodsbuf10000max","max","10000"
"539","Myrsine hermogenesii",3,"rf",0.902934911242603,0.652923076923077,"eigenmodsbuf10000max","max","10000"
"540","Myrsine hermogenesii",3,"svm",0.600733727810651,0.452,"eigenmodsbuf10000max","max","10000"
"541","Myrsine hermogenesii",3,"mindist",0.867248263287867,0.64021786794064,"eigenmodsbuf10000max","max","10000"
"542","Myrsine lancifolia",1,"BioClim",0.695278618770968,0.381638163816381,"eigenmodsbuf10000max","max","10000"
"543","Myrsine lancifolia",1,"maxent",0.947849330387584,0.83048304830483,"eigenmodsbuf10000max","max","10000"
"544","Myrsine lancifolia",1,"glm",0.912718544581731,0.682568256825683,"eigenmodsbuf10000max","max","10000"
"545","Myrsine lancifolia",1,"rf",0.923437798325287,0.8004800480048,"eigenmodsbuf10000max","max","10000"
"546","Myrsine lancifolia",1,"svm",0.87161443417069,0.622262226222622,"eigenmodsbuf10000max","max","10000"
"547","Myrsine lancifolia",1,"mindist",0.855440089463492,0.640864086408641,"eigenmodsbuf10000max","max","10000"
"548","Myrsine lancifolia",2,"BioClim",0.639144898293069,0.270055079893112,"eigenmodsbuf10000max","max","10000"
"549","Myrsine lancifolia",2,"maxent",0.860855101706931,0.605224409663522,"eigenmodsbuf10000max","max","10000"
"550","Myrsine lancifolia",2,"glm",0.80918361782189,0.578257075857556,"eigenmodsbuf10000max","max","10000"
"551","Myrsine lancifolia",2,"rf",0.867671920161422,0.582674374216066,"eigenmodsbuf10000max","max","10000"
"552","Myrsine lancifolia",2,"svm",0.682499863663631,0.540682772536402,"eigenmodsbuf10000max","max","10000"
"553","Myrsine lancifolia",2,"mindist",0.844821944701969,0.650569886022796,"eigenmodsbuf10000max","max","10000"
"554","Myrsine lancifolia",3,"BioClim",0.692782914655102,0.411041104110411,"eigenmodsbuf10000max","max","10000"
"555","Myrsine lancifolia",3,"maxent",0.887488748874887,0.718571857185719,"eigenmodsbuf10000max","max","10000"
"556","Myrsine lancifolia",3,"glm",0.850039549409486,0.620762076207621,"eigenmodsbuf10000max","max","10000"
"557","Myrsine lancifolia",3,"rf",0.835092600169108,0.550855085508551,"eigenmodsbuf10000max","max","10000"
"558","Myrsine lancifolia",3,"svm",0.770804353162589,0.489048904890489,"eigenmodsbuf10000max","max","10000"
"559","Myrsine lancifolia",3,"mindist",0.699806344270791,0.411041104110411,"eigenmodsbuf10000max","max","10000"
"560","Myrsine leuconeura",1,"BioClim",0.703195319531953,0.421579657965796,"eigenmodsbuf10000max","max","10000"
"561","Myrsine leuconeura",1,"maxent",0.84552205220522,0.616261626162616,"eigenmodsbuf10000max","max","10000"
"562","Myrsine leuconeura",1,"glm",0.8094921875,0.603125,"eigenmodsbuf10000max","max","10000"
"563","Myrsine leuconeura",1,"rf",0.8461328125,0.579375,"eigenmodsbuf10000max","max","10000"
"564","Myrsine leuconeura",1,"svm",0.8041796875,0.589375,"eigenmodsbuf10000max","max","10000"
"565","Myrsine leuconeura",1,"mindist",0.874399939993999,0.663066306630663,"eigenmodsbuf10000max","max","10000"
"566","Myrsine leuconeura",2,"BioClim",0.623841898287009,0.263280677197894,"eigenmodsbuf10000max","max","10000"
"567","Myrsine leuconeura",2,"maxent",0.912217556488702,0.784809704725721,"eigenmodsbuf10000max","max","10000"
"568","Myrsine leuconeura",2,"glm",0.913858024691358,0.771111111111111,"eigenmodsbuf10000max","max","10000"
"569","Myrsine leuconeura",2,"rf",0.782191358024691,0.435277777777778,"eigenmodsbuf10000max","max","10000"
"570","Myrsine leuconeura",2,"svm",0.833271604938272,0.549444444444444,"eigenmodsbuf10000max","max","10000"
"571","Myrsine leuconeura",2,"mindist",0.778477637805772,0.48500299940012,"eigenmodsbuf10000max","max","10000"
"572","Myrsine leuconeura",3,"BioClim",0.748856135613561,0.497674767476748,"eigenmodsbuf10000max","max","10000"
"573","Myrsine leuconeura",3,"maxent",0.810343534353435,0.715871587158716,"eigenmodsbuf10000max","max","10000"
"574","Myrsine leuconeura",3,"glm",0.81,0.6228125,"eigenmodsbuf10000max","max","10000"
"575","Myrsine leuconeura",3,"rf",0.7750390625,0.5028125,"eigenmodsbuf10000max","max","10000"
"576","Myrsine leuconeura",3,"svm",0.9321484375,0.8315625,"eigenmodsbuf10000max","max","10000"
"577","Myrsine leuconeura",3,"mindist",0.908678367836784,0.716396639663966,"eigenmodsbuf10000max","max","10000"
"578","Myrsine parvifolia",1,"BioClim",0.796667541327736,0.484586722644975,"eigenmodsbuf10000max","max","10000"
"579","Myrsine parvifolia",1,"maxent",0.842540015743899,0.632243505641564,"eigenmodsbuf10000max","max","10000"
"580","Myrsine parvifolia",1,"glm",0.876964656964657,0.657869022869023,"eigenmodsbuf10000max","max","10000"
"581","Myrsine parvifolia",1,"rf",0.909786902286902,0.700176715176715,"eigenmodsbuf10000max","max","10000"
"582","Myrsine parvifolia",1,"svm",0.787848232848233,0.476860706860707,"eigenmodsbuf10000max","max","10000"
"583","Myrsine parvifolia",1,"mindist",0.890810810810811,0.680482812909997,"eigenmodsbuf10000max","max","10000"
"584","Myrsine parvifolia",2,"BioClim",0.653085101794341,0.266865079365079,"eigenmodsbuf10000max","max","10000"
"585","Myrsine parvifolia",2,"maxent",0.892037612146308,0.704925810904072,"eigenmodsbuf10000max","max","10000"
"586","Myrsine parvifolia",2,"glm",0.921406263745931,0.722486144101346,"eigenmodsbuf10000max","max","10000"
"587","Myrsine parvifolia",2,"rf",0.92489773027184,0.781736605964634,"eigenmodsbuf10000max","max","10000"
"588","Myrsine parvifolia",2,"svm",0.856668426145861,0.608405911850092,"eigenmodsbuf10000max","max","10000"
"589","Myrsine parvifolia",2,"mindist",0.904071773636991,0.727829537612146,"eigenmodsbuf10000max","max","10000"
"590","Myrsine parvifolia",3,"BioClim",0.737139858304907,0.389388611912884,"eigenmodsbuf10000max","max","10000"
"591","Myrsine parvifolia",3,"maxent",0.89697192337969,0.697402256625558,"eigenmodsbuf10000max","max","10000"
"592","Myrsine parvifolia",3,"glm",0.907245322245322,0.690457380457381,"eigenmodsbuf10000max","max","10000"
"593","Myrsine parvifolia",3,"rf",0.892998960498961,0.697733887733888,"eigenmodsbuf10000max","max","10000"
"594","Myrsine parvifolia",3,"svm",0.847827442827443,0.592349272349272,"eigenmodsbuf10000max","max","10000"
"595","Myrsine parvifolia",3,"mindist",0.897234321700341,0.676200472316977,"eigenmodsbuf10000max","max","10000"
"596","Myrsine parvula",1,"BioClim",0.846116190566425,0.616782730904669,"eigenmodsbuf10000max","max","10000"
"597","Myrsine parvula",1,"maxent",0.944265479179497,0.8162553097415,"eigenmodsbuf10000max","max","10000"
"598","Myrsine parvula",1,"glm",0.900025258106273,0.720550626716762,"eigenmodsbuf10000max","max","10000"
"599","Myrsine parvula",1,"rf",0.936917879581978,0.735468695734537,"eigenmodsbuf10000max","max","10000"
"600","Myrsine parvula",1,"svm",0.811329839295299,0.551873835759164,"eigenmodsbuf10000max","max","10000"
"601","Myrsine parvula",1,"mindist",0.936701564893331,0.720419410362089,"eigenmodsbuf10000max","max","10000"
"602","Myrsine parvula",2,"BioClim",0.817723297445774,0.5940706595523,"eigenmodsbuf10000max","max","10000"
"603","Myrsine parvula",2,"maxent",0.942703564550248,0.781122722823856,"eigenmodsbuf10000max","max","10000"
"604","Myrsine parvula",2,"glm",0.921092144776355,0.772783309625415,"eigenmodsbuf10000max","max","10000"
"605","Myrsine parvula",2,"rf",0.947273589378853,0.814635688319899,"eigenmodsbuf10000max","max","10000"
"606","Myrsine parvula",2,"svm",0.894728939465782,0.647700331910858,"eigenmodsbuf10000max","max","10000"
"607","Myrsine parvula",2,"mindist",0.890442964038771,0.677359264989108,"eigenmodsbuf10000max","max","10000"
"608","Myrsine parvula",3,"BioClim",0.891898400366352,0.712192271858765,"eigenmodsbuf10000max","max","10000"
"609","Myrsine parvula",3,"maxent",0.960230233549671,0.849558640074534,"eigenmodsbuf10000max","max","10000"
"610","Myrsine parvula",3,"glm",0.922985295973747,0.731367537548908,"eigenmodsbuf10000max","max","10000"
"611","Myrsine parvula",3,"rf",0.937768206487442,0.728496150448063,"eigenmodsbuf10000max","max","10000"
"612","Myrsine parvula",3,"svm",0.928562413227313,0.740833648870377,"eigenmodsbuf10000max","max","10000"
"613","Myrsine parvula",3,"mindist",0.936377848311147,0.780338560171807,"eigenmodsbuf10000max","max","10000"
"614","Myrsine rubra",1,"maxent",0.981698169816982,0.979297929792979,"eigenmodsbuf10000max","max","10000"
"615","Myrsine rubra",1,"glm",0.920573827851645,0.87333799860042,"eigenmodsbuf10000max","max","10000"
"616","Myrsine rubra",2,"maxent",0.819936012797441,0.766346730653869,"eigenmodsbuf10000max","max","10000"
"617","Myrsine rubra",2,"glm",0.961571373006612,0.945157526254376,"eigenmodsbuf10000max","max","10000"
"618","Myrsine rubra",2,"rf",0.855387008945935,0.316297160637884,"eigenmodsbuf10000max","max","10000"
"619","Myrsine rubra",2,"svm",0.993076623881758,0.987631271878646,"eigenmodsbuf10000max","max","10000"
"620","Myrsine rubra",2,"mindist",0.994501099780044,0.988602279544091,"eigenmodsbuf10000max","max","10000"
"621","Myrsine rubra",3,"BioClim",0.742574257425743,0.487398739873987,"eigenmodsbuf10000max","max","10000"
"622","Myrsine rubra",3,"maxent",0.883438343834383,0.825982598259826,"eigenmodsbuf10000max","max","10000"
"623","Myrsine rubra",3,"glm",0.970773538676934,0.966398319915996,"eigenmodsbuf10000max","max","10000"
"624","Myrsine rubra",3,"rf",0.970248512425621,0.941897094854743,"eigenmodsbuf10000max","max","10000"
"625","Myrsine rubra",3,"svm",0.971998599929996,0.955897794889744,"eigenmodsbuf10000max","max","10000"
"626","Myrsine rubra",3,"mindist",0.993849384938494,0.987698769876988,"eigenmodsbuf10000max","max","10000"
"627","Myrsine umbellata",1,"BioClim",0.868295784802361,0.610395367894998,"eigenmodsbuf10000max","max","10000"
"628","Myrsine umbellata",1,"maxent",0.94117172911321,0.741356225174756,"eigenmodsbuf10000max","max","10000"
"629","Myrsine umbellata",1,"glm",0.86887302617348,0.592678287721811,"eigenmodsbuf10000max","max","10000"
"630","Myrsine umbellata",1,"rf",0.951671925231414,0.779082100740674,"eigenmodsbuf10000max","max","10000"
"631","Myrsine umbellata",1,"svm",0.848647318131979,0.624975571915535,"eigenmodsbuf10000max","max","10000"
"632","Myrsine umbellata",1,"mindist",0.935181577859278,0.743931109528863,"eigenmodsbuf10000max","max","10000"
"633","Myrsine umbellata",2,"BioClim",0.876585130735047,0.642320789573429,"eigenmodsbuf10000max","max","10000"
"634","Myrsine umbellata",2,"maxent",0.931007828285089,0.744228766187061,"eigenmodsbuf10000max","max","10000"
"635","Myrsine umbellata",2,"glm",0.869350725364773,0.612981013300843,"eigenmodsbuf10000max","max","10000"
"636","Myrsine umbellata",2,"rf",0.946808574175939,0.802831580393351,"eigenmodsbuf10000max","max","10000"
"637","Myrsine umbellata",2,"svm",0.908128923211076,0.71738844791648,"eigenmodsbuf10000max","max","10000"
"638","Myrsine umbellata",2,"mindist",0.923485452163299,0.724895319443574,"eigenmodsbuf10000max","max","10000"
"639","Myrsine umbellata",3,"BioClim",0.855835583558356,0.53641334282682,"eigenmodsbuf10000max","max","10000"
"640","Myrsine umbellata",3,"maxent",0.939125255809163,0.739135107540605,"eigenmodsbuf10000max","max","10000"
"641","Myrsine umbellata",3,"glm",0.872152886930484,0.579747526991505,"eigenmodsbuf10000max","max","10000"
"642","Myrsine umbellata",3,"rf",0.958020428908563,0.803337050122923,"eigenmodsbuf10000max","max","10000"
"643","Myrsine umbellata",3,"svm",0.908732664311207,0.728136992803758,"eigenmodsbuf10000max","max","10000"
"644","Myrsine umbellata",3,"mindist",0.93218426320244,0.746259700596925,"eigenmodsbuf10000max","max","10000"
"645","Myrsine venosa",1,"BioClim",0.765233045043635,0.457702291968327,"eigenmodsbuf10000max","max","10000"
"646","Myrsine venosa",1,"maxent",0.897728903325115,0.662707575105337,"eigenmodsbuf10000max","max","10000"
"647","Myrsine venosa",1,"glm",0.861962673712295,0.589877090051936,"eigenmodsbuf10000max","max","10000"
"648","Myrsine venosa",1,"rf",0.906794368678038,0.7286591288806,"eigenmodsbuf10000max","max","10000"
"649","Myrsine venosa",1,"svm",0.823593788449832,0.535966377847716,"eigenmodsbuf10000max","max","10000"
"650","Myrsine venosa",1,"mindist",0.866206185835975,0.624492884071016,"eigenmodsbuf10000max","max","10000"
"651","Myrsine venosa",2,"BioClim",0.775058321669,0.497413850563221,"eigenmodsbuf10000max","max","10000"
"652","Myrsine venosa",2,"maxent",0.904272478837566,0.704072518829567,"eigenmodsbuf10000max","max","10000"
"653","Myrsine venosa",2,"glm",0.875711144934889,0.670015220700152,"eigenmodsbuf10000max","max","10000"
"654","Myrsine venosa",2,"rf",0.934439370877727,0.75738203957382,"eigenmodsbuf10000max","max","10000"
"655","Myrsine venosa",2,"svm",0.878998816167766,0.692237442922374,"eigenmodsbuf10000max","max","10000"
"656","Myrsine venosa",2,"mindist",0.925274945010998,0.807385189628741,"eigenmodsbuf10000max","max","10000"
"657","Myrsine venosa",3,"BioClim",0.768513807902529,0.397970231805789,"eigenmodsbuf10000max","max","10000"
"658","Myrsine venosa",3,"maxent",0.902398935545728,0.728661996634446,"eigenmodsbuf10000max","max","10000"
"659","Myrsine venosa",3,"glm",0.875475826708444,0.644729005360333,"eigenmodsbuf10000max","max","10000"
"660","Myrsine venosa",3,"rf",0.940366289458011,0.778439547349613,"eigenmodsbuf10000max","max","10000"
"661","Myrsine venosa",3,"svm",0.91430587565062,0.692078618225134,"eigenmodsbuf10000max","max","10000"
"662","Myrsine venosa",3,"mindist",0.908419102779843,0.654058884149284,"eigenmodsbuf10000max","max","10000"
"663","Myrsine villosissima",1,"BioClim",0.582786850113583,0.182803994685183,"eigenmodsbuf10000max","max","10000"
"664","Myrsine villosissima",1,"maxent",0.864386438643864,0.692983584072693,"eigenmodsbuf10000max","max","10000"
"665","Myrsine villosissima",1,"glm",0.828813863697585,0.682858938672892,"eigenmodsbuf10000max","max","10000"
"666","Myrsine villosissima",1,"rf",0.746789979348119,0.526174014546108,"eigenmodsbuf10000max","max","10000"
"667","Myrsine villosissima",1,"svm",0.578162880488462,0.271841609050911,"eigenmodsbuf10000max","max","10000"
"668","Myrsine villosissima",1,"mindist",0.805494835197806,0.625519694826626,"eigenmodsbuf10000max","max","10000"
"669","Myrsine villosissima",2,"BioClim",0.619732303539292,0.231628674265147,"eigenmodsbuf10000max","max","10000"
"670","Myrsine villosissima",2,"maxent",0.956846130773845,0.830533893221356,"eigenmodsbuf10000max","max","10000"
"671","Myrsine villosissima",2,"glm",0.939286695986806,0.811228697086311,"eigenmodsbuf10000max","max","10000"
"672","Myrsine villosissima",2,"rf",0.958253161077515,0.829920285871358,"eigenmodsbuf10000max","max","10000"
"673","Myrsine villosissima",2,"svm",0.564767729521715,0.362012094557449,"eigenmodsbuf10000max","max","10000"
"674","Myrsine villosissima",2,"mindist",0.838482303539292,0.570860827834433,"eigenmodsbuf10000max","max","10000"
"675","Myrsine villosissima",3,"BioClim",0.845377394882345,0.671124255282671,"eigenmodsbuf10000max","max","10000"
"676","Myrsine villosissima",3,"maxent",0.902447387595902,0.753375337533754,"eigenmodsbuf10000max","max","10000"
"677","Myrsine villosissima",3,"glm",0.929335130278527,0.829559748427673,"eigenmodsbuf10000max","max","10000"
"678","Myrsine villosissima",3,"rf",0.659456424079066,0.451931716082659,"eigenmodsbuf10000max","max","10000"
"679","Myrsine villosissima",3,"svm",0.66455525606469,0.353099730458221,"eigenmodsbuf10000max","max","10000"
"680","Myrsine villosissima",3,"mindist",0.864129270069864,0.686468646864686,"eigenmodsbuf10000max","max","10000"
"681","Myrsine balansae",1,"BioClim",0.776485543291171,0.407582863549513,"eigenmodsbuf10000mean","mean","10000"
"682","Myrsine balansae",1,"maxent",0.724256636189935,0.454592827703823,"eigenmodsbuf10000mean","mean","10000"
"683","Myrsine balansae",1,"glm",0.639537637974324,0.344276532916449,"eigenmodsbuf10000mean","mean","10000"
"684","Myrsine balansae",1,"rf",0.721753754322801,0.412683373600518,"eigenmodsbuf10000mean","mean","10000"
"685","Myrsine balansae",1,"svm",0.700996415431017,0.340107694980024,"eigenmodsbuf10000mean","mean","10000"
"686","Myrsine balansae",1,"mindist",0.748259036429959,0.448213242376869,"eigenmodsbuf10000mean","mean","10000"
"687","Myrsine balansae",2,"BioClim",0.661288794872604,0.29806144034351,"eigenmodsbuf10000mean","mean","10000"
"688","Myrsine balansae",2,"maxent",0.757822119786569,0.504672749660594,"eigenmodsbuf10000mean","mean","10000"
"689","Myrsine balansae",2,"glm",0.757038861780915,0.466941430985204,"eigenmodsbuf10000mean","mean","10000"
"690","Myrsine balansae",2,"rf",0.824987761934088,0.564624883540986,"eigenmodsbuf10000mean","mean","10000"
"691","Myrsine balansae",2,"svm",0.715224153994347,0.42188955737679,"eigenmodsbuf10000mean","mean","10000"
"692","Myrsine balansae",2,"mindist",0.756543428156474,0.479067344425852,"eigenmodsbuf10000mean","mean","10000"
"693","Myrsine balansae",3,"BioClim",0.567980482258752,0.119869881725015,"eigenmodsbuf10000mean","mean","10000"
"694","Myrsine balansae",3,"maxent",0.798395629036588,0.542375290160595,"eigenmodsbuf10000mean","mean","10000"
"695","Myrsine balansae",3,"glm",0.725428598490828,0.373804186531115,"eigenmodsbuf10000mean","mean","10000"
"696","Myrsine balansae",3,"rf",0.808819814984371,0.482650838253402,"eigenmodsbuf10000mean","mean","10000"
"697","Myrsine balansae",3,"svm",0.684952483187573,0.309759100811417,"eigenmodsbuf10000mean","mean","10000"
"698","Myrsine balansae",3,"mindist",0.783283591517046,0.509719392991931,"eigenmodsbuf10000mean","mean","10000"
"699","Myrsine coriacea",1,"BioClim",0.78071218336787,0.442423681620498,"eigenmodsbuf10000mean","mean","10000"
"700","Myrsine coriacea",1,"maxent",0.919804129945705,0.728439199060093,"eigenmodsbuf10000mean","mean","10000"
"701","Myrsine coriacea",1,"glm",0.873082080657682,0.596738616889525,"eigenmodsbuf10000mean","mean","10000"
"702","Myrsine coriacea",1,"rf",0.93444012364144,0.762360183505218,"eigenmodsbuf10000mean","mean","10000"
"703","Myrsine coriacea",1,"svm",0.867238280015991,0.697546274681927,"eigenmodsbuf10000mean","mean","10000"
"704","Myrsine coriacea",1,"mindist",0.850040144201336,0.566285600522669,"eigenmodsbuf10000mean","mean","10000"
"705","Myrsine coriacea",2,"BioClim",0.816769356409092,0.50483454710927,"eigenmodsbuf10000mean","mean","10000"
"706","Myrsine coriacea",2,"maxent",0.906196330827292,0.69281470808642,"eigenmodsbuf10000mean","mean","10000"
"707","Myrsine coriacea",2,"glm",0.859241484475129,0.610229856024249,"eigenmodsbuf10000mean","mean","10000"
"708","Myrsine coriacea",2,"rf",0.927767954870759,0.755718335157587,"eigenmodsbuf10000mean","mean","10000"
"709","Myrsine coriacea",2,"svm",0.856937311142919,0.654643428475204,"eigenmodsbuf10000mean","mean","10000"
"710","Myrsine coriacea",2,"mindist",0.844744135285093,0.54292038788504,"eigenmodsbuf10000mean","mean","10000"
"711","Myrsine coriacea",3,"BioClim",0.793470468542181,0.469019799176179,"eigenmodsbuf10000mean","mean","10000"
"712","Myrsine coriacea",3,"maxent",0.912397781834258,0.681544789993018,"eigenmodsbuf10000mean","mean","10000"
"713","Myrsine coriacea",3,"glm",0.850023455780937,0.575602055119681,"eigenmodsbuf10000mean","mean","10000"
"714","Myrsine coriacea",3,"rf",0.938538363076762,0.772296334999115,"eigenmodsbuf10000mean","mean","10000"
"715","Myrsine coriacea",3,"svm",0.88339433709094,0.705617308399979,"eigenmodsbuf10000mean","mean","10000"
"716","Myrsine coriacea",3,"mindist",0.832628122625347,0.542653330753636,"eigenmodsbuf10000mean","mean","10000"
"717","Myrsine gardneriana",1,"BioClim",0.764103778798933,0.406458540590901,"eigenmodsbuf10000mean","mean","10000"
"718","Myrsine gardneriana",1,"maxent",0.868987951426722,0.651159852827388,"eigenmodsbuf10000mean","mean","10000"
"719","Myrsine gardneriana",1,"glm",0.849744108169584,0.574186516711948,"eigenmodsbuf10000mean","mean","10000"
"720","Myrsine gardneriana",1,"rf",0.90875244834776,0.688311113919252,"eigenmodsbuf10000mean","mean","10000"
"721","Myrsine gardneriana",1,"svm",0.787328615656789,0.505718076704366,"eigenmodsbuf10000mean","mean","10000"
"722","Myrsine gardneriana",1,"mindist",0.822429611382191,0.503567198825146,"eigenmodsbuf10000mean","mean","10000"
"723","Myrsine gardneriana",2,"BioClim",0.832802386891043,0.575531209547564,"eigenmodsbuf10000mean","mean","10000"
"724","Myrsine gardneriana",2,"maxent",0.922227133520664,0.732384049505888,"eigenmodsbuf10000mean","mean","10000"
"725","Myrsine gardneriana",2,"glm",0.894228827464344,0.648898775716269,"eigenmodsbuf10000mean","mean","10000"
"726","Myrsine gardneriana",2,"rf",0.916324308973874,0.726697589296983,"eigenmodsbuf10000mean","mean","10000"
"727","Myrsine gardneriana",2,"svm",0.763287264924902,0.442730026505112,"eigenmodsbuf10000mean","mean","10000"
"728","Myrsine gardneriana",2,"mindist",0.854570138603858,0.590670286995232,"eigenmodsbuf10000mean","mean","10000"
"729","Myrsine gardneriana",3,"BioClim",0.788652549465473,0.483089361567736,"eigenmodsbuf10000mean","mean","10000"
"730","Myrsine gardneriana",3,"maxent",0.886860264973866,0.63903232428506,"eigenmodsbuf10000mean","mean","10000"
"731","Myrsine gardneriana",3,"glm",0.866639287293865,0.632709926075693,"eigenmodsbuf10000mean","mean","10000"
"732","Myrsine gardneriana",3,"rf",0.892520692487521,0.671359069943767,"eigenmodsbuf10000mean","mean","10000"
"733","Myrsine gardneriana",3,"svm",0.710343084602262,0.413581221962469,"eigenmodsbuf10000mean","mean","10000"
"734","Myrsine gardneriana",3,"mindist",0.84534242897974,0.586577605128934,"eigenmodsbuf10000mean","mean","10000"
"735","Myrsine guianensis",1,"BioClim",0.733333001808468,0.386977371770326,"eigenmodsbuf10000mean","mean","10000"
"736","Myrsine guianensis",1,"maxent",0.875756083895682,0.617053970590429,"eigenmodsbuf10000mean","mean","10000"
"737","Myrsine guianensis",1,"glm",0.827972793006386,0.543529693430851,"eigenmodsbuf10000mean","mean","10000"
"738","Myrsine guianensis",1,"rf",0.885091851036556,0.640576394557936,"eigenmodsbuf10000mean","mean","10000"
"739","Myrsine guianensis",1,"svm",0.800498118753772,0.516429107027365,"eigenmodsbuf10000mean","mean","10000"
"740","Myrsine guianensis",1,"mindist",0.749029046551064,0.399411211839416,"eigenmodsbuf10000mean","mean","10000"
"741","Myrsine guianensis",2,"BioClim",0.771912101096264,0.404975048946255,"eigenmodsbuf10000mean","mean","10000"
"742","Myrsine guianensis",2,"maxent",0.876777391774392,0.638608542027858,"eigenmodsbuf10000mean","mean","10000"
"743","Myrsine guianensis",2,"glm",0.841610848168225,0.56788129902884,"eigenmodsbuf10000mean","mean","10000"
"744","Myrsine guianensis",2,"rf",0.892444440805097,0.652919211935605,"eigenmodsbuf10000mean","mean","10000"
"745","Myrsine guianensis",2,"svm",0.788201961972454,0.485429324773587,"eigenmodsbuf10000mean","mean","10000"
"746","Myrsine guianensis",2,"mindist",0.805002735716593,0.463357877874975,"eigenmodsbuf10000mean","mean","10000"
"747","Myrsine guianensis",3,"BioClim",0.731932309253025,0.366013396919803,"eigenmodsbuf10000mean","mean","10000"
"748","Myrsine guianensis",3,"maxent",0.846885241010289,0.601512084910149,"eigenmodsbuf10000mean","mean","10000"
"749","Myrsine guianensis",3,"glm",0.831223951490316,0.534236847269667,"eigenmodsbuf10000mean","mean","10000"
"750","Myrsine guianensis",3,"rf",0.874456577778813,0.621801417637648,"eigenmodsbuf10000mean","mean","10000"
"751","Myrsine guianensis",3,"svm",0.761912047924268,0.456764047485207,"eigenmodsbuf10000mean","mean","10000"
"752","Myrsine guianensis",3,"mindist",0.739666784357994,0.373698143294992,"eigenmodsbuf10000mean","mean","10000"
"753","Myrsine hermogenesii",1,"BioClim",0.544291893925146,0.11068271581719,"eigenmodsbuf10000mean","mean","10000"
"754","Myrsine hermogenesii",1,"maxent",0.641151025014106,0.33900695881136,"eigenmodsbuf10000mean","mean","10000"
"755","Myrsine hermogenesii",1,"glm",0.675127883408937,0.422160023163787,"eigenmodsbuf10000mean","mean","10000"
"756","Myrsine hermogenesii",1,"rf",0.543046038027217,0.192548981758518,"eigenmodsbuf10000mean","mean","10000"
"757","Myrsine hermogenesii",1,"svm",0.630344561335778,0.386449184441656,"eigenmodsbuf10000mean","mean","10000"
"758","Myrsine hermogenesii",2,"BioClim",0.732864137086903,0.452439237628956,"eigenmodsbuf10000mean","mean","10000"
"759","Myrsine hermogenesii",2,"maxent",0.647840531561462,0.409949291834237,"eigenmodsbuf10000mean","mean","10000"
"760","Myrsine hermogenesii",2,"glm",0.62004662004662,0.313519813519814,"eigenmodsbuf10000mean","mean","10000"
"761","Myrsine hermogenesii",2,"rf",0.577713952713953,0.225108225108225,"eigenmodsbuf10000mean","mean","10000"
"762","Myrsine hermogenesii",2,"svm",0.649433899433899,0.317515817515817,"eigenmodsbuf10000mean","mean","10000"
"763","Myrsine hermogenesii",2,"mindist",0.596695226438189,0.309232383283791,"eigenmodsbuf10000mean","mean","10000"
"764","Myrsine hermogenesii",3,"BioClim",0.594743276283619,0.269324807222118,"eigenmodsbuf10000mean","mean","10000"
"765","Myrsine hermogenesii",3,"maxent",0.597517397028399,0.276847846529998,"eigenmodsbuf10000mean","mean","10000"
"766","Myrsine hermogenesii",3,"glm",0.525930210140736,0.135531135531135,"eigenmodsbuf10000mean","mean","10000"
"767","Myrsine hermogenesii",3,"rf",0.659726238673607,0.334104491999229,"eigenmodsbuf10000mean","mean","10000"
"768","Myrsine hermogenesii",3,"svm",0.521303258145363,0.195874301137459,"eigenmodsbuf10000mean","mean","10000"
"769","Myrsine hermogenesii",3,"mindist",0.596765093097611,0.254560842580402,"eigenmodsbuf10000mean","mean","10000"
"770","Myrsine lancifolia",1,"BioClim",0.582330960368764,0.182118211821182,"eigenmodsbuf10000mean","mean","10000"
"771","Myrsine lancifolia",1,"maxent",0.875487548754875,0.619261926192619,"eigenmodsbuf10000mean","mean","10000"
"772","Myrsine lancifolia",1,"glm",0.837601942012383,0.656765676567657,"eigenmodsbuf10000mean","mean","10000"
"773","Myrsine lancifolia",1,"rf",0.786910509232741,0.515451545154515,"eigenmodsbuf10000mean","mean","10000"
"774","Myrsine lancifolia",1,"svm",0.72814554182691,0.465946594659466,"eigenmodsbuf10000mean","mean","10000"
"775","Myrsine lancifolia",1,"mindist",0.710580148923983,0.37983798379838,"eigenmodsbuf10000mean","mean","10000"
"776","Myrsine lancifolia",2,"BioClim",0.567650106342368,0.150051807820254,"eigenmodsbuf10000mean","mean","10000"
"777","Myrsine lancifolia",2,"maxent",0.698233080656596,0.419234334951192,"eigenmodsbuf10000mean","mean","10000"
"778","Myrsine lancifolia",2,"glm",0.68050935267492,0.356492337896057,"eigenmodsbuf10000mean","mean","10000"
"779","Myrsine lancifolia",2,"rf",0.755317118394503,0.520586791732563,"eigenmodsbuf10000mean","mean","10000"
"780","Myrsine lancifolia",2,"svm",0.646752467688281,0.381114686153678,"eigenmodsbuf10000mean","mean","10000"
"781","Myrsine lancifolia",2,"mindist",0.686862627474505,0.342831433713257,"eigenmodsbuf10000mean","mean","10000"
"782","Myrsine lancifolia",3,"BioClim",0.566743037940158,0.243324332433243,"eigenmodsbuf10000mean","mean","10000"
"783","Myrsine lancifolia",3,"maxent",0.762239860349671,0.472247224722472,"eigenmodsbuf10000mean","mean","10000"
"784","Myrsine lancifolia",3,"glm",0.735428088263372,0.392139213921392,"eigenmodsbuf10000mean","mean","10000"
"785","Myrsine lancifolia",3,"rf",0.744565365627472,0.471947194719472,"eigenmodsbuf10000mean","mean","10000"
"786","Myrsine lancifolia",3,"svm",0.601560156015602,0.299129912991299,"eigenmodsbuf10000mean","mean","10000"
"787","Myrsine leuconeura",1,"BioClim",0.533790879087909,0.138351335133513,"eigenmodsbuf10000mean","mean","10000"
"788","Myrsine leuconeura",1,"maxent",0.611536153615362,0.290879087908791,"eigenmodsbuf10000mean","mean","10000"
"789","Myrsine leuconeura",1,"glm",0.7294140625,0.5784375,"eigenmodsbuf10000mean","mean","10000"
"790","Myrsine leuconeura",1,"rf",0.69826171875,0.0634375,"eigenmodsbuf10000mean","mean","10000"
"791","Myrsine leuconeura",1,"svm",0.6091015625,0.3571875,"eigenmodsbuf10000mean","mean","10000"
"792","Myrsine leuconeura",1,"mindist",0.641201620162016,0.350772577257726,"eigenmodsbuf10000mean","mean","10000"
"793","Myrsine leuconeura",2,"maxent",0.805672198893555,0.615643537959075,"eigenmodsbuf10000mean","mean","10000"
"794","Myrsine leuconeura",2,"glm",0.736111111111111,0.486666666666667,"eigenmodsbuf10000mean","mean","10000"
"795","Myrsine leuconeura",2,"rf",0.598425925925926,0.328055555555556,"eigenmodsbuf10000mean","mean","10000"
"796","Myrsine leuconeura",2,"svm",0.614598765432099,0.302777777777778,"eigenmodsbuf10000mean","mean","10000"
"797","Myrsine leuconeura",2,"mindist",0.500766513363994,0.208391655002333,"eigenmodsbuf10000mean","mean","10000"
"798","Myrsine leuconeura",3,"BioClim",0.535084758475848,0.113336333633363,"eigenmodsbuf10000mean","mean","10000"
"799","Myrsine leuconeura",3,"maxent",0.542979297929793,0.329432943294329,"eigenmodsbuf10000mean","mean","10000"
"800","Myrsine leuconeura",3,"glm",0.640546875,0.3615625,"eigenmodsbuf10000mean","mean","10000"
"801","Myrsine leuconeura",3,"rf",0.6137890625,0.124375,"eigenmodsbuf10000mean","mean","10000"
"802","Myrsine leuconeura",3,"svm",0.7090625,0.4246875,"eigenmodsbuf10000mean","mean","10000"
"803","Myrsine leuconeura",3,"mindist",0.775615061506151,0.641689168916892,"eigenmodsbuf10000mean","mean","10000"
"804","Myrsine parvifolia",1,"BioClim",0.586293436293436,0.148841698841699,"eigenmodsbuf10000mean","mean","10000"
"805","Myrsine parvifolia",1,"maxent",0.562612612612613,0.235456885456885,"eigenmodsbuf10000mean","mean","10000"
"806","Myrsine parvifolia",1,"glm",0.58972716792622,0.187652107083387,"eigenmodsbuf10000mean","mean","10000"
"807","Myrsine parvifolia",1,"rf",0.629691302677085,0.327334443448188,"eigenmodsbuf10000mean","mean","10000"
"808","Myrsine parvifolia",1,"svm",0.570577686691431,0.187588061995645,"eigenmodsbuf10000mean","mean","10000"
"809","Myrsine parvifolia",1,"mindist",0.665444015444015,0.305212355212355,"eigenmodsbuf10000mean","mean","10000"
"810","Myrsine parvifolia",2,"maxent",0.654932378679395,0.291302041898701,"eigenmodsbuf10000mean","mean","10000"
"811","Myrsine parvifolia",2,"glm",0.680589513719098,0.345897853844064,"eigenmodsbuf10000mean","mean","10000"
"812","Myrsine parvifolia",2,"rf",0.692950285248574,0.377478945938604,"eigenmodsbuf10000mean","mean","10000"
"813","Myrsine parvifolia",2,"svm",0.597663678348275,0.215702254822059,"eigenmodsbuf10000mean","mean","10000"
"814","Myrsine parvifolia",2,"mindist",0.597387960753116,0.196499602227526,"eigenmodsbuf10000mean","mean","10000"
"815","Myrsine parvifolia",3,"BioClim",0.532528957528958,0.074002574002574,"eigenmodsbuf10000mean","mean","10000"
"816","Myrsine parvifolia",3,"maxent",0.657979407979408,0.260553410553411,"eigenmodsbuf10000mean","mean","10000"
"817","Myrsine parvifolia",3,"glm",0.566494064157616,0.156100025258904,"eigenmodsbuf10000mean","mean","10000"
"818","Myrsine parvifolia",3,"rf",0.641986612781005,0.299823187673655,"eigenmodsbuf10000mean","mean","10000"
"819","Myrsine parvifolia",3,"svm",0.662099014902753,0.323566557211417,"eigenmodsbuf10000mean","mean","10000"
"820","Myrsine parvifolia",3,"mindist",0.625997425997426,0.22020592020592,"eigenmodsbuf10000mean","mean","10000"
"821","Myrsine parvula",1,"BioClim",0.685375116459014,0.348863833751796,"eigenmodsbuf10000mean","mean","10000"
"822","Myrsine parvula",1,"maxent",0.811525889431048,0.507619182970929,"eigenmodsbuf10000mean","mean","10000"
"823","Myrsine parvula",1,"glm",0.758808764562877,0.426625201275534,"eigenmodsbuf10000mean","mean","10000"
"824","Myrsine parvula",1,"rf",0.851253433523822,0.557035961228807,"eigenmodsbuf10000mean","mean","10000"
"825","Myrsine parvula",1,"svm",0.697636788431787,0.326997758343068,"eigenmodsbuf10000mean","mean","10000"
"826","Myrsine parvula",1,"mindist",0.787768250509261,0.479676915059927,"eigenmodsbuf10000mean","mean","10000"
"827","Myrsine parvula",2,"BioClim",0.657756606573422,0.277334006882834,"eigenmodsbuf10000mean","mean","10000"
"828","Myrsine parvula",2,"maxent",0.822048748145108,0.549900546206548,"eigenmodsbuf10000mean","mean","10000"
"829","Myrsine parvula",2,"glm",0.809917812549392,0.546989094357516,"eigenmodsbuf10000mean","mean","10000"
"830","Myrsine parvula",2,"rf",0.805255255255255,0.473289078552237,"eigenmodsbuf10000mean","mean","10000"
"831","Myrsine parvula",2,"svm",0.685064011379801,0.384242136873716,"eigenmodsbuf10000mean","mean","10000"
"832","Myrsine parvula",2,"mindist",0.706098254033404,0.373646323366906,"eigenmodsbuf10000mean","mean","10000"
"833","Myrsine parvula",3,"BioClim",0.756051920981572,0.433764429074486,"eigenmodsbuf10000mean","mean","10000"
"834","Myrsine parvula",3,"maxent",0.861575631247335,0.60979519004532,"eigenmodsbuf10000mean","mean","10000"
"835","Myrsine parvula",3,"glm",0.786578631831377,0.42113151583996,"eigenmodsbuf10000mean","mean","10000"
"836","Myrsine parvula",3,"rf",0.815154455383062,0.509876309478733,"eigenmodsbuf10000mean","mean","10000"
"837","Myrsine parvula",3,"svm",0.728898460179225,0.370834911018554,"eigenmodsbuf10000mean","mean","10000"
"838","Myrsine parvula",3,"mindist",0.794534716629558,0.53324806164827,"eigenmodsbuf10000mean","mean","10000"
"839","Myrsine rubra",1,"maxent",0.952676493405741,0.948021722265322,"eigenmodsbuf10000mean","mean","10000"
"840","Myrsine rubra",2,"maxent",0.615683229813665,0.524844720496894,"eigenmodsbuf10000mean","mean","10000"
"841","Myrsine rubra",2,"glm",0.815016103059581,0.689009661835749,"eigenmodsbuf10000mean","mean","10000"
"842","Myrsine rubra",2,"rf",0.72493961352657,0.277777777777778,"eigenmodsbuf10000mean","mean","10000"
"843","Myrsine rubra",2,"svm",0.974436392914654,0.963768115942029,"eigenmodsbuf10000mean","mean","10000"
"844","Myrsine rubra",2,"mindist",0.975414078674948,0.947981366459627,"eigenmodsbuf10000mean","mean","10000"
"845","Myrsine rubra",3,"BioClim",0.722459270752521,0.45655546935609,"eigenmodsbuf10000mean","mean","10000"
"846","Myrsine rubra",3,"maxent",0.712567882079131,0.583397982932506,"eigenmodsbuf10000mean","mean","10000"
"847","Myrsine rubra",3,"glm",0.742753623188406,0.596014492753623,"eigenmodsbuf10000mean","mean","10000"
"848","Myrsine rubra",3,"rf",0.884510869565217,0.490942028985507,"eigenmodsbuf10000mean","mean","10000"
"849","Myrsine rubra",3,"svm",0.868659420289855,0.771739130434783,"eigenmodsbuf10000mean","mean","10000"
"850","Myrsine rubra",3,"mindist",0.960434445306439,0.926299456943367,"eigenmodsbuf10000mean","mean","10000"
"851","Myrsine umbellata",1,"BioClim",0.794424218541257,0.490038556094415,"eigenmodsbuf10000mean","mean","10000"
"852","Myrsine umbellata",1,"maxent",0.901708081255887,0.643026989266091,"eigenmodsbuf10000mean","mean","10000"
"853","Myrsine umbellata",1,"glm",0.861209693660632,0.557768876755652,"eigenmodsbuf10000mean","mean","10000"
"854","Myrsine umbellata",1,"rf",0.914277935659036,0.696580068174868,"eigenmodsbuf10000mean","mean","10000"
"855","Myrsine umbellata",1,"svm",0.804417194387881,0.537944460605518,"eigenmodsbuf10000mean","mean","10000"
"856","Myrsine umbellata",1,"mindist",0.884404858396287,0.617349794680961,"eigenmodsbuf10000mean","mean","10000"
"857","Myrsine umbellata",2,"BioClim",0.826347417083747,0.526543944942355,"eigenmodsbuf10000mean","mean","10000"
"858","Myrsine umbellata",2,"maxent",0.896881817666317,0.648424046533977,"eigenmodsbuf10000mean","mean","10000"
"859","Myrsine umbellata",2,"glm",0.858068600574558,0.55473383383204,"eigenmodsbuf10000mean","mean","10000"
"860","Myrsine umbellata",2,"rf",0.920764574486511,0.740982960348318,"eigenmodsbuf10000mean","mean","10000"
"861","Myrsine umbellata",2,"svm",0.822272192459073,0.589616443592362,"eigenmodsbuf10000mean","mean","10000"
"862","Myrsine umbellata",2,"mindist",0.872385224447648,0.62436318706408,"eigenmodsbuf10000mean","mean","10000"
"863","Myrsine umbellata",3,"BioClim",0.790999249178649,0.430972948041073,"eigenmodsbuf10000mean","mean","10000"
"864","Myrsine umbellata",3,"maxent",0.905157679947099,0.655928279395104,"eigenmodsbuf10000mean","mean","10000"
"865","Myrsine umbellata",3,"glm",0.858770951722038,0.589088759622231,"eigenmodsbuf10000mean","mean","10000"
"866","Myrsine umbellata",3,"rf",0.922439258851258,0.725105346355531,"eigenmodsbuf10000mean","mean","10000"
"867","Myrsine umbellata",3,"svm",0.843748553959874,0.63013465525657,"eigenmodsbuf10000mean","mean","10000"
"868","Myrsine umbellata",3,"mindist",0.883116669875943,0.649650039630829,"eigenmodsbuf10000mean","mean","10000"
"869","Myrsine venosa",1,"BioClim",0.656995119358944,0.297474373138294,"eigenmodsbuf10000mean","mean","10000"
"870","Myrsine venosa",1,"maxent",0.750849567175242,0.380459255737201,"eigenmodsbuf10000mean","mean","10000"
"871","Myrsine venosa",1,"glm",0.68478954966961,0.353267810539175,"eigenmodsbuf10000mean","mean","10000"
"872","Myrsine venosa",1,"rf",0.771350435893165,0.405214059636848,"eigenmodsbuf10000mean","mean","10000"
"873","Myrsine venosa",1,"svm",0.616226608917763,0.230148814481648,"eigenmodsbuf10000mean","mean","10000"
"874","Myrsine venosa",1,"mindist",0.712615548128155,0.377221810452124,"eigenmodsbuf10000mean","mean","10000"
"875","Myrsine venosa",2,"BioClim",0.617549692549692,0.220892320892321,"eigenmodsbuf10000mean","mean","10000"
"876","Myrsine venosa",2,"maxent",0.753024453024453,0.432861432861433,"eigenmodsbuf10000mean","mean","10000"
"877","Myrsine venosa",2,"glm",0.702939255388635,0.373778938965092,"eigenmodsbuf10000mean","mean","10000"
"878","Myrsine venosa",2,"rf",0.787927280644459,0.489600116118731,"eigenmodsbuf10000mean","mean","10000"
"879","Myrsine venosa",2,"svm",0.77989694462588,0.485485158574642,"eigenmodsbuf10000mean","mean","10000"
"880","Myrsine venosa",2,"mindist",0.793800943800944,0.530480480480481,"eigenmodsbuf10000mean","mean","10000"
"881","Myrsine venosa",3,"BioClim",0.640926762414868,0.224635350385277,"eigenmodsbuf10000mean","mean","10000"
"882","Myrsine venosa",3,"maxent",0.725782091263792,0.421112618345057,"eigenmodsbuf10000mean","mean","10000"
"883","Myrsine venosa",3,"glm",0.692792492642568,0.323324448886668,"eigenmodsbuf10000mean","mean","10000"
"884","Myrsine venosa",3,"rf",0.812784579932256,0.566397356877117,"eigenmodsbuf10000mean","mean","10000"
"885","Myrsine venosa",3,"svm",0.715364539952246,0.386181909045477,"eigenmodsbuf10000mean","mean","10000"
"886","Myrsine venosa",3,"mindist",0.729921546142336,0.401100591550478,"eigenmodsbuf10000mean","mean","10000"
"887","Myrsine villosissima",1,"maxent",0.749342681858019,0.634531113058721,"eigenmodsbuf10000mean","mean","10000"
"888","Myrsine villosissima",1,"glm",0.731626754748142,0.610239471511148,"eigenmodsbuf10000mean","mean","10000"
"889","Myrsine villosissima",1,"rf",0.702862647949353,0.47444719699055,"eigenmodsbuf10000mean","mean","10000"
"890","Myrsine villosissima",1,"svm",0.595834480227544,0.332140563354436,"eigenmodsbuf10000mean","mean","10000"
"891","Myrsine villosissima",1,"mindist",0.540666082383874,0.256091148115688,"eigenmodsbuf10000mean","mean","10000"
"892","Myrsine villosissima",2,"maxent",0.843481595092025,0.590490797546012,"eigenmodsbuf10000mean","mean","10000"
"893","Myrsine villosissima",2,"glm",0.805610236220472,0.581271091113611,"eigenmodsbuf10000mean","mean","10000"
"894","Myrsine villosissima",2,"rf",0.871414510686164,0.65396512935883,"eigenmodsbuf10000mean","mean","10000"
"895","Myrsine villosissima",2,"svm",0.586192350956131,0.312710911136108,"eigenmodsbuf10000mean","mean","10000"
"896","Myrsine villosissima",2,"mindist",0.592177914110429,0.316564417177914,"eigenmodsbuf10000mean","mean","10000"
"897","Myrsine villosissima",3,"BioClim",0.642462751971954,0.265118317265556,"eigenmodsbuf10000mean","mean","10000"
"898","Myrsine villosissima",3,"maxent",0.730411919368975,0.45977212971078,"eigenmodsbuf10000mean","mean","10000"
"899","Myrsine villosissima",3,"glm",0.807257694074414,0.651355075792375,"eigenmodsbuf10000mean","mean","10000"
"900","Myrsine villosissima",3,"rf",0.643867707854846,0.328249885163068,"eigenmodsbuf10000mean","mean","10000"
"901","Myrsine villosissima",3,"svm",0.638217730822232,0.322186495176849,"eigenmodsbuf10000mean","mean","10000"
"902","Myrsine villosissima",3,"mindist",0.616564417177914,0.331638913234005,"eigenmodsbuf10000mean","mean","10000"
