"kappa" "spec_sens" "no_omission" "prevalence" "equal_sens_spec" "sensitivity" "AUC" "TSS" "algoritmo" "partition"
"Myrsine parvifolia 3 BioClim" 0.43825616 0.10231096 -1e-04 0.0079 0.07661233 0.0079 0.743920230910522 0.408417738126476 "BioClim" 3
"Myrsine parvifolia 3 maxent" 0.73930692 0.31164067 0.14750993 0.01416027 0.39596664 0.3163549 0.898861191288376 0.705557596431383 "maxent" 3
"Myrsine parvifolia 3 glm" 0.14235784 0.01360712 0.00315925 0.01402811 0.02013045 0.01366817 0.903877338877339 0.675072765072765 "glm" 3
"Myrsine parvifolia 3 rf" 0.2037 0.01153333 -1e-04 0.014016 0.016205 0.0044 0.896200623700624 0.717276507276507 "rf" 3
"Myrsine parvifolia 3 svm" 0.01177824 0.01144192 0.00986783 0.01394952 0.0115434 0.0113756 0.841070686070686 0.576507276507277 "svm" 3
"Myrsine parvifolia 3 mindist" 0.87948732 0.50005359 -9.31e-06 0.01413284 0.57992174 0.50070414 0.899868800839675 0.686685909210181 "mindist" 3
