"kappa" "spec_sens" "no_omission" "prevalence" "equal_sens_spec" "sensitivity" "AUC" "TSS" "algoritmo" "partition"
"Myrsine hermogenesii 3 BioClim" 0.05708519 0.05708519 -1e-04 -1e-04 0.05708519 0.05708519 0.802671821801604 0.6127878123377 "BioClim" 3
"Myrsine hermogenesii 3 maxent" 0.65215142 0.2910041 0.00864912 0.00970554 0.16368451 0.08266796 0.851347452247677 0.625944947775405 "maxent" 3
"Myrsine hermogenesii 3 glm" 0.14387771 0.01111573 0.00162911 0.00987912 0.00793845 0.00414734 0.844201183431953 0.600769230769231 "glm" 3
"Myrsine hermogenesii 3 rf" 0.081692 0.0199 -1e-04 0.0099 0.004746 0.00217173 0.884881656804734 0.65 "rf" 3
"Myrsine hermogenesii 3 svm" 0.00923005 0.0076641 -0.0068086 0.00988232 0.00654554 -0.00012582 0.585917159763314 0.359230769230769 "svm" 3
"Myrsine hermogenesii 3 centroid" 0.79321295 0.51540751 -6.2e-05 0.0095487 0.41177175 0.0666308 0.716948467886202 0.536268682555254 "centroid" 3
"Myrsine hermogenesii 3 mindist" 0.82034594 0.48232463 -1.212e-05 0.0092377 0.36795489 0.18580841 0.871256275607363 0.64770038663512 "mindist" 3
