"kappa" "spec_sens" "no_omission" "prevalence" "equal_sens_spec" "sensitivity" "AUC" "TSS" "algoritmo" "partition"
"Myrsine lancifolia 3 BioClim" 0.05162727 0.05162727 -1e-04 -1e-04 0.05162727 0.05162727 0.575661157024793 0.258181818181818 "BioClim" 3
"Myrsine lancifolia 3 maxent" 0.86262818 0.32115822 0.06029659 0.01271923 0.36066232 0.32438646 0.765867768595041 0.517272727272727 "maxent" 3
"Myrsine lancifolia 3 glm" 0.07987305 0.00630729 0.00177479 0.00989904 0.00820709 0.00445541 0.746363636363636 0.398181818181818 "glm" 3
"Myrsine lancifolia 3 rf" 0.10866667 0.0018825 -1e-04 0.0099 0.002146 0.0001632 0.692520661157025 0.422727272727273 "rf" 3
"Myrsine lancifolia 3 svm" 0.0095475 0.00897092 0.00591802 0.00989624 0.0084635 0.00658816 0.654628099173554 0.41 "svm" 3
"Myrsine lancifolia 3 centroid" 0.85454288 0.59318681 -5.014e-05 0.01006684 0.34425635 0.03919018 0.655454545454545 0.34 "centroid" 3
"Myrsine lancifolia 3 mindist" 0.78003716 1.4999999999999e-07 1.4999999999999e-07 0.01011882 0.27931356 0.06889752 0.513884297520661 0.186363636363636 "mindist" 3
