"kappa" "spec_sens" "no_omission" "prevalence" "equal_sens_spec" "sensitivity" "AUC" "TSS" "algoritmo" "partition"
"Myrsine umbellata 1 BioClim" 0.31333284 0.04965124 -1e-04 0.00985025 0.04965124 0.0198005 0.863426647855251 0.601144278606965 "BioClim" 1
"Myrsine umbellata 1 maxent" 0.67089214 0.10214783 0.00209468 0.00986688 0.20579235 0.14683199 0.935562486077077 0.732089552238806 "maxent" 1
"Myrsine umbellata 1 glm" 0.05522305 0.01023765 5.186e-05 0.00988353 0.01256327 0.00562416 0.864015494665974 0.580049751243781 "glm" 1
"Myrsine umbellata 1 rf" 0.132 0.01296667 -1e-04 0.0099 0.0089 0.00523333 0.93934655082795 0.739950248756219 "rf" 1
"Myrsine umbellata 1 svm" 0.00991749 0.00985622 0.00888443 0.00989688 0.00986718 0.00985829 0.912692260092572 0.71318407960199 "svm" 1
"Myrsine umbellata 1 centroid" 0.8451826 0.42945455 -2.697e-05 0.00937864 0.45149234 0.30016903 0.803699908418108 0.454179104477612 "centroid" 1
"Myrsine umbellata 1 mindist" 0.90627383 0.66977122 -4.025e-05 0.00995878 0.70580499 0.67489627 0.931886339447043 0.736716417910448 "mindist" 1
