"kappa" "spec_sens" "no_omission" "prevalence" "equal_sens_spec" "sensitivity" "AUC" "TSS" "algoritmo" "partition"
"Myrsine parvifolia 3 BioClim" 0.63003699 0.10948904 -1e-04 0.08209178 0.1368863 0.02729726 0.53970398970399 0.107335907335907 "BioClim" 3
"Myrsine parvifolia 3 maxent" 0.7790214 0.70136167 0.20566072 0.0815493 0.59129085 0.34526237 0.644658944658945 0.21969111969112 "maxent" 3
"Myrsine parvifolia 3 glm" 0.10822275 0.08522491 0.04670038 0.07956226 0.0806367 0.05371556 0.556327355392776 0.135008840616317 "glm" 3
"Myrsine parvifolia 3 rf" 0.16343333 0.0634 -1e-04 0.07943333 0.0657 0.0097 0.636461227582723 0.265471078555191 "rf" 3
"Myrsine parvifolia 3 svm" 0.02804226 0.0271555 0.0194266 0.041329 0.02692276 0.02434405 0.631725183127052 0.261177064915383 "svm" 3
"Myrsine parvifolia 3 mindist" 0.94380992 0.87391726 -9.31e-06 0.08046163 0.77062215 0.50128666 0.606241956241956 0.182303732303732 "mindist" 3
